2021-04-11 10:41:05,022 [MainThread] DEBUG Palmmedia.WpfGraph.UI.ViewModels.GraphViewModel`2[[Palmmedia.WpfGraph.UI.ViewModels.NodeData, Palmmedia.WpfGraph.UI, Version=1.0.0.0, Culture=neutral, PublicKeyToken=null],[Palmmedia.WpfGraph.UI.ViewModels.EdgeData, Palmmedia.WpfGraph.UI, Version=1.0.0.0, Culture=neutral, PublicKeyToken=null]] [(null)] - Selected new element: Position: 30,-10,0, Text: 2
2021-04-11 10:41:07,271 [MainThread] DEBUG Palmmedia.WpfGraph.UI.ViewModels.GraphViewModel`2[[Palmmedia.WpfGraph.UI.ViewModels.NodeData, Palmmedia.WpfGraph.UI, Version=1.0.0.0, Culture=neutral, PublicKeyToken=null],[Palmmedia.WpfGraph.UI.ViewModels.EdgeData, Palmmedia.WpfGraph.UI, Version=1.0.0.0, Culture=neutral, PublicKeyToken=null]] [(null)] - Removed node: Position: 30,-10,0, Text: 2
2021-04-11 10:41:07,308 [MainThread] DEBUG Palmmedia.WpfGraph.UI.ViewModels.GraphViewModel`2[[Palmmedia.WpfGraph.UI.ViewModels.NodeData, Palmmedia.WpfGraph.UI, Version=1.0.0.0, Culture=neutral, PublicKeyToken=null],[Palmmedia.WpfGraph.UI.ViewModels.EdgeData, Palmmedia.WpfGraph.UI, Version=1.0.0.0, Culture=neutral, PublicKeyToken=null]] [(null)] - Selected new element: 
2021-04-11 10:41:08,566 [MainThread] DEBUG Palmmedia.WpfGraph.UI.ViewModels.GraphViewModel`2[[Palmmedia.WpfGraph.UI.ViewModels.NodeData, Palmmedia.WpfGraph.UI, Version=1.0.0.0, Culture=neutral, PublicKeyToken=null],[Palmmedia.WpfGraph.UI.ViewModels.EdgeData, Palmmedia.WpfGraph.UI, Version=1.0.0.0, Culture=neutral, PublicKeyToken=null]] [(null)] - Selected new element: Position: -26,17,0, Text: Origen
2021-04-11 10:41:58,143 [MainThread] DEBUG Palmmedia.WpfGraph.UI.ViewModels.GraphViewModel`2[[Palmmedia.WpfGraph.UI.ViewModels.NodeData, Palmmedia.WpfGraph.UI, Version=1.0.0.0, Culture=neutral, PublicKeyToken=null],[Palmmedia.WpfGraph.UI.ViewModels.EdgeData, Palmmedia.WpfGraph.UI, Version=1.0.0.0, Culture=neutral, PublicKeyToken=null]] [(null)] - Added node: Position: 13,25,0, Text: 3
2021-04-11 10:41:58,144 [MainThread] DEBUG Palmmedia.WpfGraph.UI.ViewModels.GraphViewModel`2[[Palmmedia.WpfGraph.UI.ViewModels.NodeData, Palmmedia.WpfGraph.UI, Version=1.0.0.0, Culture=neutral, PublicKeyToken=null],[Palmmedia.WpfGraph.UI.ViewModels.EdgeData, Palmmedia.WpfGraph.UI, Version=1.0.0.0, Culture=neutral, PublicKeyToken=null]] [(null)] - Selected new element: Position: 13,25,0, Text: 3
2021-04-11 10:42:06,822 [MainThread] DEBUG Palmmedia.WpfGraph.UI.ViewModels.GraphViewModel`2[[Palmmedia.WpfGraph.UI.ViewModels.NodeData, Palmmedia.WpfGraph.UI, Version=1.0.0.0, Culture=neutral, PublicKeyToken=null],[Palmmedia.WpfGraph.UI.ViewModels.EdgeData, Palmmedia.WpfGraph.UI, Version=1.0.0.0, Culture=neutral, PublicKeyToken=null]] [(null)] - Selected new element: Position: -26,17,0, Text: Origen
2021-04-11 10:42:08,469 [MainThread] DEBUG Palmmedia.WpfGraph.UI.ViewModels.GraphViewModel`2[[Palmmedia.WpfGraph.UI.ViewModels.NodeData, Palmmedia.WpfGraph.UI, Version=1.0.0.0, Culture=neutral, PublicKeyToken=null],[Palmmedia.WpfGraph.UI.ViewModels.EdgeData, Palmmedia.WpfGraph.UI, Version=1.0.0.0, Culture=neutral, PublicKeyToken=null]] [(null)] - Selected new element: Position: 13,25,0, Text: 3
2021-04-11 10:42:09,210 [MainThread] DEBUG Palmmedia.WpfGraph.UI.ViewModels.GraphViewModel`2[[Palmmedia.WpfGraph.UI.ViewModels.NodeData, Palmmedia.WpfGraph.UI, Version=1.0.0.0, Culture=neutral, PublicKeyToken=null],[Palmmedia.WpfGraph.UI.ViewModels.EdgeData, Palmmedia.WpfGraph.UI, Version=1.0.0.0, Culture=neutral, PublicKeyToken=null]] [(null)] - Added edge: Palmmedia.WpfGraph.Core.Edge`2[Palmmedia.WpfGraph.UI.ViewModels.NodeData,Palmmedia.WpfGraph.UI.ViewModels.EdgeData]
2021-04-11 10:42:09,220 [MainThread] DEBUG Palmmedia.WpfGraph.UI.ViewModels.GraphViewModel`2[[Palmmedia.WpfGraph.UI.ViewModels.NodeData, Palmmedia.WpfGraph.UI, Version=1.0.0.0, Culture=neutral, PublicKeyToken=null],[Palmmedia.WpfGraph.UI.ViewModels.EdgeData, Palmmedia.WpfGraph.UI, Version=1.0.0.0, Culture=neutral, PublicKeyToken=null]] [(null)] - Selected new element: Weight: 1
2021-04-11 10:42:10,592 [MainThread] DEBUG Palmmedia.WpfGraph.UI.ViewModels.GraphViewModel`2[[Palmmedia.WpfGraph.UI.ViewModels.NodeData, Palmmedia.WpfGraph.UI, Version=1.0.0.0, Culture=neutral, PublicKeyToken=null],[Palmmedia.WpfGraph.UI.ViewModels.EdgeData, Palmmedia.WpfGraph.UI, Version=1.0.0.0, Culture=neutral, PublicKeyToken=null]] [(null)] - Removed edge: Weight: 1
2021-04-11 10:42:10,594 [MainThread] DEBUG Palmmedia.WpfGraph.UI.ViewModels.GraphViewModel`2[[Palmmedia.WpfGraph.UI.ViewModels.NodeData, Palmmedia.WpfGraph.UI, Version=1.0.0.0, Culture=neutral, PublicKeyToken=null],[Palmmedia.WpfGraph.UI.ViewModels.EdgeData, Palmmedia.WpfGraph.UI, Version=1.0.0.0, Culture=neutral, PublicKeyToken=null]] [(null)] - Selected new element: 
2021-04-11 10:42:11,330 [MainThread] DEBUG Palmmedia.WpfGraph.UI.ViewModels.GraphViewModel`2[[Palmmedia.WpfGraph.UI.ViewModels.NodeData, Palmmedia.WpfGraph.UI, Version=1.0.0.0, Culture=neutral, PublicKeyToken=null],[Palmmedia.WpfGraph.UI.ViewModels.EdgeData, Palmmedia.WpfGraph.UI, Version=1.0.0.0, Culture=neutral, PublicKeyToken=null]] [(null)] - Selected new element: Position: 13,25,0, Text: 3
2021-04-11 10:42:12,283 [MainThread] DEBUG Palmmedia.WpfGraph.UI.ViewModels.GraphViewModel`2[[Palmmedia.WpfGraph.UI.ViewModels.NodeData, Palmmedia.WpfGraph.UI, Version=1.0.0.0, Culture=neutral, PublicKeyToken=null],[Palmmedia.WpfGraph.UI.ViewModels.EdgeData, Palmmedia.WpfGraph.UI, Version=1.0.0.0, Culture=neutral, PublicKeyToken=null]] [(null)] - Added edge: Palmmedia.WpfGraph.Core.Edge`2[Palmmedia.WpfGraph.UI.ViewModels.NodeData,Palmmedia.WpfGraph.UI.ViewModels.EdgeData]
2021-04-11 10:42:12,418 [MainThread] DEBUG Palmmedia.WpfGraph.UI.ViewModels.GraphViewModel`2[[Palmmedia.WpfGraph.UI.ViewModels.NodeData, Palmmedia.WpfGraph.UI, Version=1.0.0.0, Culture=neutral, PublicKeyToken=null],[Palmmedia.WpfGraph.UI.ViewModels.EdgeData, Palmmedia.WpfGraph.UI, Version=1.0.0.0, Culture=neutral, PublicKeyToken=null]] [(null)] - Selected new element: Weight: 1
2021-04-11 10:42:41,247 [MainThread] DEBUG Palmmedia.WpfGraph.UI.ViewModels.GraphViewModel`2[[Palmmedia.WpfGraph.UI.ViewModels.NodeData, Palmmedia.WpfGraph.UI, Version=1.0.0.0, Culture=neutral, PublicKeyToken=null],[Palmmedia.WpfGraph.UI.ViewModels.EdgeData, Palmmedia.WpfGraph.UI, Version=1.0.0.0, Culture=neutral, PublicKeyToken=null]] [(null)] - Added node: Position: -7,-4,0, Text: 4
2021-04-11 10:42:41,247 [MainThread] DEBUG Palmmedia.WpfGraph.UI.ViewModels.GraphViewModel`2[[Palmmedia.WpfGraph.UI.ViewModels.NodeData, Palmmedia.WpfGraph.UI, Version=1.0.0.0, Culture=neutral, PublicKeyToken=null],[Palmmedia.WpfGraph.UI.ViewModels.EdgeData, Palmmedia.WpfGraph.UI, Version=1.0.0.0, Culture=neutral, PublicKeyToken=null]] [(null)] - Selected new element: Position: -7,-4,0, Text: 4
2021-04-11 10:42:43,012 [MainThread] DEBUG Palmmedia.WpfGraph.UI.ViewModels.GraphViewModel`2[[Palmmedia.WpfGraph.UI.ViewModels.NodeData, Palmmedia.WpfGraph.UI, Version=1.0.0.0, Culture=neutral, PublicKeyToken=null],[Palmmedia.WpfGraph.UI.ViewModels.EdgeData, Palmmedia.WpfGraph.UI, Version=1.0.0.0, Culture=neutral, PublicKeyToken=null]] [(null)] - Selected new element: Position: -26,17,0, Text: Origen
2021-04-11 10:42:43,862 [MainThread] DEBUG Palmmedia.WpfGraph.UI.ViewModels.GraphViewModel`2[[Palmmedia.WpfGraph.UI.ViewModels.NodeData, Palmmedia.WpfGraph.UI, Version=1.0.0.0, Culture=neutral, PublicKeyToken=null],[Palmmedia.WpfGraph.UI.ViewModels.EdgeData, Palmmedia.WpfGraph.UI, Version=1.0.0.0, Culture=neutral, PublicKeyToken=null]] [(null)] - Added edge: Palmmedia.WpfGraph.Core.Edge`2[Palmmedia.WpfGraph.UI.ViewModels.NodeData,Palmmedia.WpfGraph.UI.ViewModels.EdgeData]
2021-04-11 10:42:43,867 [MainThread] DEBUG Palmmedia.WpfGraph.UI.ViewModels.GraphViewModel`2[[Palmmedia.WpfGraph.UI.ViewModels.NodeData, Palmmedia.WpfGraph.UI, Version=1.0.0.0, Culture=neutral, PublicKeyToken=null],[Palmmedia.WpfGraph.UI.ViewModels.EdgeData, Palmmedia.WpfGraph.UI, Version=1.0.0.0, Culture=neutral, PublicKeyToken=null]] [(null)] - Selected new element: Weight: 1
2021-04-11 10:42:44,791 [MainThread] DEBUG Palmmedia.WpfGraph.UI.ViewModels.GraphViewModel`2[[Palmmedia.WpfGraph.UI.ViewModels.NodeData, Palmmedia.WpfGraph.UI, Version=1.0.0.0, Culture=neutral, PublicKeyToken=null],[Palmmedia.WpfGraph.UI.ViewModels.EdgeData, Palmmedia.WpfGraph.UI, Version=1.0.0.0, Culture=neutral, PublicKeyToken=null]] [(null)] - Added node: Position: 24,-9,0, Text: 5
2021-04-11 10:42:44,793 [MainThread] DEBUG Palmmedia.WpfGraph.UI.ViewModels.GraphViewModel`2[[Palmmedia.WpfGraph.UI.ViewModels.NodeData, Palmmedia.WpfGraph.UI, Version=1.0.0.0, Culture=neutral, PublicKeyToken=null],[Palmmedia.WpfGraph.UI.ViewModels.EdgeData, Palmmedia.WpfGraph.UI, Version=1.0.0.0, Culture=neutral, PublicKeyToken=null]] [(null)] - Selected new element: Position: 24,-9,0, Text: 5
2021-04-11 10:42:46,811 [MainThread] DEBUG Palmmedia.WpfGraph.UI.ViewModels.GraphViewModel`2[[Palmmedia.WpfGraph.UI.ViewModels.NodeData, Palmmedia.WpfGraph.UI, Version=1.0.0.0, Culture=neutral, PublicKeyToken=null],[Palmmedia.WpfGraph.UI.ViewModels.EdgeData, Palmmedia.WpfGraph.UI, Version=1.0.0.0, Culture=neutral, PublicKeyToken=null]] [(null)] - Added node: Position: 41,14,0, Text: 6
2021-04-11 10:42:46,812 [MainThread] DEBUG Palmmedia.WpfGraph.UI.ViewModels.GraphViewModel`2[[Palmmedia.WpfGraph.UI.ViewModels.NodeData, Palmmedia.WpfGraph.UI, Version=1.0.0.0, Culture=neutral, PublicKeyToken=null],[Palmmedia.WpfGraph.UI.ViewModels.EdgeData, Palmmedia.WpfGraph.UI, Version=1.0.0.0, Culture=neutral, PublicKeyToken=null]] [(null)] - Selected new element: Position: 41,14,0, Text: 6
2021-04-11 10:42:48,444 [MainThread] DEBUG Palmmedia.WpfGraph.UI.ViewModels.GraphViewModel`2[[Palmmedia.WpfGraph.UI.ViewModels.NodeData, Palmmedia.WpfGraph.UI, Version=1.0.0.0, Culture=neutral, PublicKeyToken=null],[Palmmedia.WpfGraph.UI.ViewModels.EdgeData, Palmmedia.WpfGraph.UI, Version=1.0.0.0, Culture=neutral, PublicKeyToken=null]] [(null)] - Added node: Position: 37,-27,0, Text: 7
2021-04-11 10:42:48,446 [MainThread] DEBUG Palmmedia.WpfGraph.UI.ViewModels.GraphViewModel`2[[Palmmedia.WpfGraph.UI.ViewModels.NodeData, Palmmedia.WpfGraph.UI, Version=1.0.0.0, Culture=neutral, PublicKeyToken=null],[Palmmedia.WpfGraph.UI.ViewModels.EdgeData, Palmmedia.WpfGraph.UI, Version=1.0.0.0, Culture=neutral, PublicKeyToken=null]] [(null)] - Selected new element: Position: 37,-27,0, Text: 7
2021-04-11 10:42:50,376 [MainThread] DEBUG Palmmedia.WpfGraph.UI.ViewModels.GraphViewModel`2[[Palmmedia.WpfGraph.UI.ViewModels.NodeData, Palmmedia.WpfGraph.UI, Version=1.0.0.0, Culture=neutral, PublicKeyToken=null],[Palmmedia.WpfGraph.UI.ViewModels.EdgeData, Palmmedia.WpfGraph.UI, Version=1.0.0.0, Culture=neutral, PublicKeyToken=null]] [(null)] - Added node: Position: -23,-36,0, Text: 8
2021-04-11 10:42:50,377 [MainThread] DEBUG Palmmedia.WpfGraph.UI.ViewModels.GraphViewModel`2[[Palmmedia.WpfGraph.UI.ViewModels.NodeData, Palmmedia.WpfGraph.UI, Version=1.0.0.0, Culture=neutral, PublicKeyToken=null],[Palmmedia.WpfGraph.UI.ViewModels.EdgeData, Palmmedia.WpfGraph.UI, Version=1.0.0.0, Culture=neutral, PublicKeyToken=null]] [(null)] - Selected new element: Position: -23,-36,0, Text: 8
2021-04-11 10:42:52,267 [MainThread] DEBUG Palmmedia.WpfGraph.UI.ViewModels.GraphViewModel`2[[Palmmedia.WpfGraph.UI.ViewModels.NodeData, Palmmedia.WpfGraph.UI, Version=1.0.0.0, Culture=neutral, PublicKeyToken=null],[Palmmedia.WpfGraph.UI.ViewModels.EdgeData, Palmmedia.WpfGraph.UI, Version=1.0.0.0, Culture=neutral, PublicKeyToken=null]] [(null)] - Selected new element: Position: -7,-4,0, Text: 4
2021-04-11 10:42:53,025 [MainThread] DEBUG Palmmedia.WpfGraph.UI.ViewModels.GraphViewModel`2[[Palmmedia.WpfGraph.UI.ViewModels.NodeData, Palmmedia.WpfGraph.UI, Version=1.0.0.0, Culture=neutral, PublicKeyToken=null],[Palmmedia.WpfGraph.UI.ViewModels.EdgeData, Palmmedia.WpfGraph.UI, Version=1.0.0.0, Culture=neutral, PublicKeyToken=null]] [(null)] - Added edge: Palmmedia.WpfGraph.Core.Edge`2[Palmmedia.WpfGraph.UI.ViewModels.NodeData,Palmmedia.WpfGraph.UI.ViewModels.EdgeData]
2021-04-11 10:42:53,027 [MainThread] DEBUG Palmmedia.WpfGraph.UI.ViewModels.GraphViewModel`2[[Palmmedia.WpfGraph.UI.ViewModels.NodeData, Palmmedia.WpfGraph.UI, Version=1.0.0.0, Culture=neutral, PublicKeyToken=null],[Palmmedia.WpfGraph.UI.ViewModels.EdgeData, Palmmedia.WpfGraph.UI, Version=1.0.0.0, Culture=neutral, PublicKeyToken=null]] [(null)] - Selected new element: Weight: 1
2021-04-11 10:42:54,169 [MainThread] DEBUG Palmmedia.WpfGraph.UI.ViewModels.GraphViewModel`2[[Palmmedia.WpfGraph.UI.ViewModels.NodeData, Palmmedia.WpfGraph.UI, Version=1.0.0.0, Culture=neutral, PublicKeyToken=null],[Palmmedia.WpfGraph.UI.ViewModels.EdgeData, Palmmedia.WpfGraph.UI, Version=1.0.0.0, Culture=neutral, PublicKeyToken=null]] [(null)] - Selected new element: Position: -7,-4,0, Text: 4
2021-04-11 10:42:55,145 [MainThread] DEBUG Palmmedia.WpfGraph.UI.ViewModels.GraphViewModel`2[[Palmmedia.WpfGraph.UI.ViewModels.NodeData, Palmmedia.WpfGraph.UI, Version=1.0.0.0, Culture=neutral, PublicKeyToken=null],[Palmmedia.WpfGraph.UI.ViewModels.EdgeData, Palmmedia.WpfGraph.UI, Version=1.0.0.0, Culture=neutral, PublicKeyToken=null]] [(null)] - Added edge: Palmmedia.WpfGraph.Core.Edge`2[Palmmedia.WpfGraph.UI.ViewModels.NodeData,Palmmedia.WpfGraph.UI.ViewModels.EdgeData]
2021-04-11 10:42:55,148 [MainThread] DEBUG Palmmedia.WpfGraph.UI.ViewModels.GraphViewModel`2[[Palmmedia.WpfGraph.UI.ViewModels.NodeData, Palmmedia.WpfGraph.UI, Version=1.0.0.0, Culture=neutral, PublicKeyToken=null],[Palmmedia.WpfGraph.UI.ViewModels.EdgeData, Palmmedia.WpfGraph.UI, Version=1.0.0.0, Culture=neutral, PublicKeyToken=null]] [(null)] - Selected new element: Weight: 1
2021-04-11 10:42:56,300 [MainThread] DEBUG Palmmedia.WpfGraph.UI.ViewModels.GraphViewModel`2[[Palmmedia.WpfGraph.UI.ViewModels.NodeData, Palmmedia.WpfGraph.UI, Version=1.0.0.0, Culture=neutral, PublicKeyToken=null],[Palmmedia.WpfGraph.UI.ViewModels.EdgeData, Palmmedia.WpfGraph.UI, Version=1.0.0.0, Culture=neutral, PublicKeyToken=null]] [(null)] - Selected new element: Position: 13,25,0, Text: 3
2021-04-11 10:42:57,154 [MainThread] DEBUG Palmmedia.WpfGraph.UI.ViewModels.GraphViewModel`2[[Palmmedia.WpfGraph.UI.ViewModels.NodeData, Palmmedia.WpfGraph.UI, Version=1.0.0.0, Culture=neutral, PublicKeyToken=null],[Palmmedia.WpfGraph.UI.ViewModels.EdgeData, Palmmedia.WpfGraph.UI, Version=1.0.0.0, Culture=neutral, PublicKeyToken=null]] [(null)] - Added edge: Palmmedia.WpfGraph.Core.Edge`2[Palmmedia.WpfGraph.UI.ViewModels.NodeData,Palmmedia.WpfGraph.UI.ViewModels.EdgeData]
2021-04-11 10:42:57,155 [MainThread] DEBUG Palmmedia.WpfGraph.UI.ViewModels.GraphViewModel`2[[Palmmedia.WpfGraph.UI.ViewModels.NodeData, Palmmedia.WpfGraph.UI, Version=1.0.0.0, Culture=neutral, PublicKeyToken=null],[Palmmedia.WpfGraph.UI.ViewModels.EdgeData, Palmmedia.WpfGraph.UI, Version=1.0.0.0, Culture=neutral, PublicKeyToken=null]] [(null)] - Selected new element: Weight: 1
2021-04-11 10:43:05,371 [MainThread] DEBUG Palmmedia.WpfGraph.UI.ViewModels.GraphViewModel`2[[Palmmedia.WpfGraph.UI.ViewModels.NodeData, Palmmedia.WpfGraph.UI, Version=1.0.0.0, Culture=neutral, PublicKeyToken=null],[Palmmedia.WpfGraph.UI.ViewModels.EdgeData, Palmmedia.WpfGraph.UI, Version=1.0.0.0, Culture=neutral, PublicKeyToken=null]] [(null)] - Selected new element: Position: 24,-9,0, Text: 5
2021-04-11 10:43:06,288 [MainThread] DEBUG Palmmedia.WpfGraph.UI.ViewModels.GraphViewModel`2[[Palmmedia.WpfGraph.UI.ViewModels.NodeData, Palmmedia.WpfGraph.UI, Version=1.0.0.0, Culture=neutral, PublicKeyToken=null],[Palmmedia.WpfGraph.UI.ViewModels.EdgeData, Palmmedia.WpfGraph.UI, Version=1.0.0.0, Culture=neutral, PublicKeyToken=null]] [(null)] - Added edge: Palmmedia.WpfGraph.Core.Edge`2[Palmmedia.WpfGraph.UI.ViewModels.NodeData,Palmmedia.WpfGraph.UI.ViewModels.EdgeData]
2021-04-11 10:43:06,289 [MainThread] DEBUG Palmmedia.WpfGraph.UI.ViewModels.GraphViewModel`2[[Palmmedia.WpfGraph.UI.ViewModels.NodeData, Palmmedia.WpfGraph.UI, Version=1.0.0.0, Culture=neutral, PublicKeyToken=null],[Palmmedia.WpfGraph.UI.ViewModels.EdgeData, Palmmedia.WpfGraph.UI, Version=1.0.0.0, Culture=neutral, PublicKeyToken=null]] [(null)] - Selected new element: Weight: 1
2021-04-11 10:43:16,057 [MainThread] DEBUG Palmmedia.WpfGraph.UI.ViewModels.GraphViewModel`2[[Palmmedia.WpfGraph.UI.ViewModels.NodeData, Palmmedia.WpfGraph.UI, Version=1.0.0.0, Culture=neutral, PublicKeyToken=null],[Palmmedia.WpfGraph.UI.ViewModels.EdgeData, Palmmedia.WpfGraph.UI, Version=1.0.0.0, Culture=neutral, PublicKeyToken=null]] [(null)] - Selected new element: Position: 37,-27,0, Text: 7
2021-04-11 10:43:18,100 [MainThread] DEBUG Palmmedia.WpfGraph.UI.ViewModels.GraphViewModel`2[[Palmmedia.WpfGraph.UI.ViewModels.NodeData, Palmmedia.WpfGraph.UI, Version=1.0.0.0, Culture=neutral, PublicKeyToken=null],[Palmmedia.WpfGraph.UI.ViewModels.EdgeData, Palmmedia.WpfGraph.UI, Version=1.0.0.0, Culture=neutral, PublicKeyToken=null]] [(null)] - Selected new element: Position: -23,-36,0, Text: 8
2021-04-11 10:43:18,921 [MainThread] DEBUG Palmmedia.WpfGraph.UI.ViewModels.GraphViewModel`2[[Palmmedia.WpfGraph.UI.ViewModels.NodeData, Palmmedia.WpfGraph.UI, Version=1.0.0.0, Culture=neutral, PublicKeyToken=null],[Palmmedia.WpfGraph.UI.ViewModels.EdgeData, Palmmedia.WpfGraph.UI, Version=1.0.0.0, Culture=neutral, PublicKeyToken=null]] [(null)] - Added edge: Palmmedia.WpfGraph.Core.Edge`2[Palmmedia.WpfGraph.UI.ViewModels.NodeData,Palmmedia.WpfGraph.UI.ViewModels.EdgeData]
2021-04-11 10:43:18,922 [MainThread] DEBUG Palmmedia.WpfGraph.UI.ViewModels.GraphViewModel`2[[Palmmedia.WpfGraph.UI.ViewModels.NodeData, Palmmedia.WpfGraph.UI, Version=1.0.0.0, Culture=neutral, PublicKeyToken=null],[Palmmedia.WpfGraph.UI.ViewModels.EdgeData, Palmmedia.WpfGraph.UI, Version=1.0.0.0, Culture=neutral, PublicKeyToken=null]] [(null)] - Selected new element: Weight: 1
2021-04-11 10:43:20,250 [MainThread] DEBUG Palmmedia.WpfGraph.UI.ViewModels.GraphViewModel`2[[Palmmedia.WpfGraph.UI.ViewModels.NodeData, Palmmedia.WpfGraph.UI, Version=1.0.0.0, Culture=neutral, PublicKeyToken=null],[Palmmedia.WpfGraph.UI.ViewModels.EdgeData, Palmmedia.WpfGraph.UI, Version=1.0.0.0, Culture=neutral, PublicKeyToken=null]] [(null)] - Removed edge: Weight: 1
2021-04-11 10:43:20,251 [MainThread] DEBUG Palmmedia.WpfGraph.UI.ViewModels.GraphViewModel`2[[Palmmedia.WpfGraph.UI.ViewModels.NodeData, Palmmedia.WpfGraph.UI, Version=1.0.0.0, Culture=neutral, PublicKeyToken=null],[Palmmedia.WpfGraph.UI.ViewModels.EdgeData, Palmmedia.WpfGraph.UI, Version=1.0.0.0, Culture=neutral, PublicKeyToken=null]] [(null)] - Selected new element: 
2021-04-11 10:43:20,833 [MainThread] DEBUG Palmmedia.WpfGraph.UI.ViewModels.GraphViewModel`2[[Palmmedia.WpfGraph.UI.ViewModels.NodeData, Palmmedia.WpfGraph.UI, Version=1.0.0.0, Culture=neutral, PublicKeyToken=null],[Palmmedia.WpfGraph.UI.ViewModels.EdgeData, Palmmedia.WpfGraph.UI, Version=1.0.0.0, Culture=neutral, PublicKeyToken=null]] [(null)] - Selected new element: Position: -23,-36,0, Text: 8
2021-04-11 10:43:21,902 [MainThread] DEBUG Palmmedia.WpfGraph.UI.ViewModels.GraphViewModel`2[[Palmmedia.WpfGraph.UI.ViewModels.NodeData, Palmmedia.WpfGraph.UI, Version=1.0.0.0, Culture=neutral, PublicKeyToken=null],[Palmmedia.WpfGraph.UI.ViewModels.EdgeData, Palmmedia.WpfGraph.UI, Version=1.0.0.0, Culture=neutral, PublicKeyToken=null]] [(null)] - Selected new element: Position: 37,-27,0, Text: 7
2021-04-11 10:43:22,566 [MainThread] DEBUG Palmmedia.WpfGraph.UI.ViewModels.GraphViewModel`2[[Palmmedia.WpfGraph.UI.ViewModels.NodeData, Palmmedia.WpfGraph.UI, Version=1.0.0.0, Culture=neutral, PublicKeyToken=null],[Palmmedia.WpfGraph.UI.ViewModels.EdgeData, Palmmedia.WpfGraph.UI, Version=1.0.0.0, Culture=neutral, PublicKeyToken=null]] [(null)] - Added edge: Palmmedia.WpfGraph.Core.Edge`2[Palmmedia.WpfGraph.UI.ViewModels.NodeData,Palmmedia.WpfGraph.UI.ViewModels.EdgeData]
2021-04-11 10:43:22,567 [MainThread] DEBUG Palmmedia.WpfGraph.UI.ViewModels.GraphViewModel`2[[Palmmedia.WpfGraph.UI.ViewModels.NodeData, Palmmedia.WpfGraph.UI, Version=1.0.0.0, Culture=neutral, PublicKeyToken=null],[Palmmedia.WpfGraph.UI.ViewModels.EdgeData, Palmmedia.WpfGraph.UI, Version=1.0.0.0, Culture=neutral, PublicKeyToken=null]] [(null)] - Selected new element: Weight: 1
2021-04-11 10:43:24,197 [MainThread] DEBUG Palmmedia.WpfGraph.UI.ViewModels.GraphViewModel`2[[Palmmedia.WpfGraph.UI.ViewModels.NodeData, Palmmedia.WpfGraph.UI, Version=1.0.0.0, Culture=neutral, PublicKeyToken=null],[Palmmedia.WpfGraph.UI.ViewModels.EdgeData, Palmmedia.WpfGraph.UI, Version=1.0.0.0, Culture=neutral, PublicKeyToken=null]] [(null)] - Removed edge: Weight: 1
2021-04-11 10:43:24,198 [MainThread] DEBUG Palmmedia.WpfGraph.UI.ViewModels.GraphViewModel`2[[Palmmedia.WpfGraph.UI.ViewModels.NodeData, Palmmedia.WpfGraph.UI, Version=1.0.0.0, Culture=neutral, PublicKeyToken=null],[Palmmedia.WpfGraph.UI.ViewModels.EdgeData, Palmmedia.WpfGraph.UI, Version=1.0.0.0, Culture=neutral, PublicKeyToken=null]] [(null)] - Selected new element: 
2021-04-11 10:43:25,326 [MainThread] DEBUG Palmmedia.WpfGraph.UI.ViewModels.GraphViewModel`2[[Palmmedia.WpfGraph.UI.ViewModels.NodeData, Palmmedia.WpfGraph.UI, Version=1.0.0.0, Culture=neutral, PublicKeyToken=null],[Palmmedia.WpfGraph.UI.ViewModels.EdgeData, Palmmedia.WpfGraph.UI, Version=1.0.0.0, Culture=neutral, PublicKeyToken=null]] [(null)] - Selected new element: Position: -23,-36,0, Text: 8
2021-04-11 10:43:28,843 [MainThread] DEBUG Palmmedia.WpfGraph.UI.ViewModels.GraphViewModel`2[[Palmmedia.WpfGraph.UI.ViewModels.NodeData, Palmmedia.WpfGraph.UI, Version=1.0.0.0, Culture=neutral, PublicKeyToken=null],[Palmmedia.WpfGraph.UI.ViewModels.EdgeData, Palmmedia.WpfGraph.UI, Version=1.0.0.0, Culture=neutral, PublicKeyToken=null]] [(null)] - Removed node: Position: -23,-36,0, Text: 8
2021-04-11 10:43:28,846 [MainThread] DEBUG Palmmedia.WpfGraph.UI.ViewModels.GraphViewModel`2[[Palmmedia.WpfGraph.UI.ViewModels.NodeData, Palmmedia.WpfGraph.UI, Version=1.0.0.0, Culture=neutral, PublicKeyToken=null],[Palmmedia.WpfGraph.UI.ViewModels.EdgeData, Palmmedia.WpfGraph.UI, Version=1.0.0.0, Culture=neutral, PublicKeyToken=null]] [(null)] - Selected new element: 
2021-04-11 10:43:37,920 [MainThread] DEBUG Palmmedia.WpfGraph.UI.ViewModels.GraphViewModel`2[[Palmmedia.WpfGraph.UI.ViewModels.NodeData, Palmmedia.WpfGraph.UI, Version=1.0.0.0, Culture=neutral, PublicKeyToken=null],[Palmmedia.WpfGraph.UI.ViewModels.EdgeData, Palmmedia.WpfGraph.UI, Version=1.0.0.0, Culture=neutral, PublicKeyToken=null]] [(null)] - Selected new element: Position: 37,-27,0, Text: 7
2021-04-11 10:43:39,149 [MainThread] DEBUG Palmmedia.WpfGraph.UI.ViewModels.GraphViewModel`2[[Palmmedia.WpfGraph.UI.ViewModels.NodeData, Palmmedia.WpfGraph.UI, Version=1.0.0.0, Culture=neutral, PublicKeyToken=null],[Palmmedia.WpfGraph.UI.ViewModels.EdgeData, Palmmedia.WpfGraph.UI, Version=1.0.0.0, Culture=neutral, PublicKeyToken=null]] [(null)] - Removed edge: Weight: 1
2021-04-11 10:43:39,150 [MainThread] DEBUG Palmmedia.WpfGraph.UI.ViewModels.GraphViewModel`2[[Palmmedia.WpfGraph.UI.ViewModels.NodeData, Palmmedia.WpfGraph.UI, Version=1.0.0.0, Culture=neutral, PublicKeyToken=null],[Palmmedia.WpfGraph.UI.ViewModels.EdgeData, Palmmedia.WpfGraph.UI, Version=1.0.0.0, Culture=neutral, PublicKeyToken=null]] [(null)] - Removed node: Position: 37,-27,0, Text: 7
2021-04-11 10:43:39,151 [MainThread] DEBUG Palmmedia.WpfGraph.UI.ViewModels.GraphViewModel`2[[Palmmedia.WpfGraph.UI.ViewModels.NodeData, Palmmedia.WpfGraph.UI, Version=1.0.0.0, Culture=neutral, PublicKeyToken=null],[Palmmedia.WpfGraph.UI.ViewModels.EdgeData, Palmmedia.WpfGraph.UI, Version=1.0.0.0, Culture=neutral, PublicKeyToken=null]] [(null)] - Selected new element: 
2021-04-11 10:43:41,600 [MainThread] DEBUG Palmmedia.WpfGraph.UI.ViewModels.GraphViewModel`2[[Palmmedia.WpfGraph.UI.ViewModels.NodeData, Palmmedia.WpfGraph.UI, Version=1.0.0.0, Culture=neutral, PublicKeyToken=null],[Palmmedia.WpfGraph.UI.ViewModels.EdgeData, Palmmedia.WpfGraph.UI, Version=1.0.0.0, Culture=neutral, PublicKeyToken=null]] [(null)] - Selected new element: Position: 24,-9,0, Text: 5
2021-04-11 10:43:42,621 [MainThread] DEBUG Palmmedia.WpfGraph.UI.ViewModels.GraphViewModel`2[[Palmmedia.WpfGraph.UI.ViewModels.NodeData, Palmmedia.WpfGraph.UI, Version=1.0.0.0, Culture=neutral, PublicKeyToken=null],[Palmmedia.WpfGraph.UI.ViewModels.EdgeData, Palmmedia.WpfGraph.UI, Version=1.0.0.0, Culture=neutral, PublicKeyToken=null]] [(null)] - Added node: Position: 6,-29,0, Text: 9
2021-04-11 10:43:42,623 [MainThread] DEBUG Palmmedia.WpfGraph.UI.ViewModels.GraphViewModel`2[[Palmmedia.WpfGraph.UI.ViewModels.NodeData, Palmmedia.WpfGraph.UI, Version=1.0.0.0, Culture=neutral, PublicKeyToken=null],[Palmmedia.WpfGraph.UI.ViewModels.EdgeData, Palmmedia.WpfGraph.UI, Version=1.0.0.0, Culture=neutral, PublicKeyToken=null]] [(null)] - Selected new element: Position: 6,-29,0, Text: 9
2021-04-11 10:43:43,380 [MainThread] DEBUG Palmmedia.WpfGraph.UI.ViewModels.GraphViewModel`2[[Palmmedia.WpfGraph.UI.ViewModels.NodeData, Palmmedia.WpfGraph.UI, Version=1.0.0.0, Culture=neutral, PublicKeyToken=null],[Palmmedia.WpfGraph.UI.ViewModels.EdgeData, Palmmedia.WpfGraph.UI, Version=1.0.0.0, Culture=neutral, PublicKeyToken=null]] [(null)] - Added node: Position: 45,-31,0, Text: 10
2021-04-11 10:43:43,381 [MainThread] DEBUG Palmmedia.WpfGraph.UI.ViewModels.GraphViewModel`2[[Palmmedia.WpfGraph.UI.ViewModels.NodeData, Palmmedia.WpfGraph.UI, Version=1.0.0.0, Culture=neutral, PublicKeyToken=null],[Palmmedia.WpfGraph.UI.ViewModels.EdgeData, Palmmedia.WpfGraph.UI, Version=1.0.0.0, Culture=neutral, PublicKeyToken=null]] [(null)] - Selected new element: Position: 45,-31,0, Text: 10
2021-04-11 10:43:44,340 [MainThread] DEBUG Palmmedia.WpfGraph.UI.ViewModels.GraphViewModel`2[[Palmmedia.WpfGraph.UI.ViewModels.NodeData, Palmmedia.WpfGraph.UI, Version=1.0.0.0, Culture=neutral, PublicKeyToken=null],[Palmmedia.WpfGraph.UI.ViewModels.EdgeData, Palmmedia.WpfGraph.UI, Version=1.0.0.0, Culture=neutral, PublicKeyToken=null]] [(null)] - Selected new element: Position: 24,-9,0, Text: 5
2021-04-11 10:43:45,271 [MainThread] DEBUG Palmmedia.WpfGraph.UI.ViewModels.GraphViewModel`2[[Palmmedia.WpfGraph.UI.ViewModels.NodeData, Palmmedia.WpfGraph.UI, Version=1.0.0.0, Culture=neutral, PublicKeyToken=null],[Palmmedia.WpfGraph.UI.ViewModels.EdgeData, Palmmedia.WpfGraph.UI, Version=1.0.0.0, Culture=neutral, PublicKeyToken=null]] [(null)] - Added edge: Palmmedia.WpfGraph.Core.Edge`2[Palmmedia.WpfGraph.UI.ViewModels.NodeData,Palmmedia.WpfGraph.UI.ViewModels.EdgeData]
2021-04-11 10:43:45,273 [MainThread] DEBUG Palmmedia.WpfGraph.UI.ViewModels.GraphViewModel`2[[Palmmedia.WpfGraph.UI.ViewModels.NodeData, Palmmedia.WpfGraph.UI, Version=1.0.0.0, Culture=neutral, PublicKeyToken=null],[Palmmedia.WpfGraph.UI.ViewModels.EdgeData, Palmmedia.WpfGraph.UI, Version=1.0.0.0, Culture=neutral, PublicKeyToken=null]] [(null)] - Selected new element: Weight: 1
2021-04-11 10:43:46,613 [MainThread] DEBUG Palmmedia.WpfGraph.UI.ViewModels.GraphViewModel`2[[Palmmedia.WpfGraph.UI.ViewModels.NodeData, Palmmedia.WpfGraph.UI, Version=1.0.0.0, Culture=neutral, PublicKeyToken=null],[Palmmedia.WpfGraph.UI.ViewModels.EdgeData, Palmmedia.WpfGraph.UI, Version=1.0.0.0, Culture=neutral, PublicKeyToken=null]] [(null)] - Selected new element: Position: 24,-9,0, Text: 5
2021-04-11 10:43:47,358 [MainThread] DEBUG Palmmedia.WpfGraph.UI.ViewModels.GraphViewModel`2[[Palmmedia.WpfGraph.UI.ViewModels.NodeData, Palmmedia.WpfGraph.UI, Version=1.0.0.0, Culture=neutral, PublicKeyToken=null],[Palmmedia.WpfGraph.UI.ViewModels.EdgeData, Palmmedia.WpfGraph.UI, Version=1.0.0.0, Culture=neutral, PublicKeyToken=null]] [(null)] - Added edge: Palmmedia.WpfGraph.Core.Edge`2[Palmmedia.WpfGraph.UI.ViewModels.NodeData,Palmmedia.WpfGraph.UI.ViewModels.EdgeData]
2021-04-11 10:43:47,360 [MainThread] DEBUG Palmmedia.WpfGraph.UI.ViewModels.GraphViewModel`2[[Palmmedia.WpfGraph.UI.ViewModels.NodeData, Palmmedia.WpfGraph.UI, Version=1.0.0.0, Culture=neutral, PublicKeyToken=null],[Palmmedia.WpfGraph.UI.ViewModels.EdgeData, Palmmedia.WpfGraph.UI, Version=1.0.0.0, Culture=neutral, PublicKeyToken=null]] [(null)] - Selected new element: Weight: 1
2021-04-11 10:56:09,833 [MainThread] DEBUG Palmmedia.WpfGraph.UI.ViewModels.GraphViewModel`2[[Palmmedia.WpfGraph.UI.ViewModels.NodeData, Palmmedia.WpfGraph.UI, Version=1.0.0.0, Culture=neutral, PublicKeyToken=null],[Palmmedia.WpfGraph.UI.ViewModels.EdgeData, Palmmedia.WpfGraph.UI, Version=1.0.0.0, Culture=neutral, PublicKeyToken=null]] [(null)] - Selected new element: Weight: 10
2021-04-11 10:56:44,239 [MainThread] DEBUG Palmmedia.WpfGraph.UI.ViewModels.GraphViewModel`2[[Palmmedia.WpfGraph.UI.ViewModels.NodeData, Palmmedia.WpfGraph.UI, Version=1.0.0.0, Culture=neutral, PublicKeyToken=null],[Palmmedia.WpfGraph.UI.ViewModels.EdgeData, Palmmedia.WpfGraph.UI, Version=1.0.0.0, Culture=neutral, PublicKeyToken=null]] [(null)] - Selected new element: Position: -26,17,0, Text: Origen
2021-04-11 10:56:58,032 [MainThread] DEBUG Palmmedia.WpfGraph.UI.ViewModels.GraphViewModel`2[[Palmmedia.WpfGraph.UI.ViewModels.NodeData, Palmmedia.WpfGraph.UI, Version=1.0.0.0, Culture=neutral, PublicKeyToken=null],[Palmmedia.WpfGraph.UI.ViewModels.EdgeData, Palmmedia.WpfGraph.UI, Version=1.0.0.0, Culture=neutral, PublicKeyToken=null]] [(null)] - Selected new element: Weight: 1
2021-04-11 10:57:14,396 [MainThread] DEBUG Palmmedia.WpfGraph.UI.ViewModels.GraphViewModel`2[[Palmmedia.WpfGraph.UI.ViewModels.NodeData, Palmmedia.WpfGraph.UI, Version=1.0.0.0, Culture=neutral, PublicKeyToken=null],[Palmmedia.WpfGraph.UI.ViewModels.EdgeData, Palmmedia.WpfGraph.UI, Version=1.0.0.0, Culture=neutral, PublicKeyToken=null]] [(null)] - Selected new element: Weight: 10
2021-04-11 10:57:15,295 [MainThread] DEBUG Palmmedia.WpfGraph.UI.ViewModels.GraphViewModel`2[[Palmmedia.WpfGraph.UI.ViewModels.NodeData, Palmmedia.WpfGraph.UI, Version=1.0.0.0, Culture=neutral, PublicKeyToken=null],[Palmmedia.WpfGraph.UI.ViewModels.EdgeData, Palmmedia.WpfGraph.UI, Version=1.0.0.0, Culture=neutral, PublicKeyToken=null]] [(null)] - Selected new element: Weight: 10
2021-04-11 10:57:20,432 [MainThread] DEBUG Palmmedia.WpfGraph.UI.ViewModels.GraphViewModel`2[[Palmmedia.WpfGraph.UI.ViewModels.NodeData, Palmmedia.WpfGraph.UI, Version=1.0.0.0, Culture=neutral, PublicKeyToken=null],[Palmmedia.WpfGraph.UI.ViewModels.EdgeData, Palmmedia.WpfGraph.UI, Version=1.0.0.0, Culture=neutral, PublicKeyToken=null]] [(null)] - Selected new element: Position: 13,25,0, Text: 3
2021-04-11 10:57:22,380 [MainThread] DEBUG Palmmedia.WpfGraph.UI.ViewModels.GraphViewModel`2[[Palmmedia.WpfGraph.UI.ViewModels.NodeData, Palmmedia.WpfGraph.UI, Version=1.0.0.0, Culture=neutral, PublicKeyToken=null],[Palmmedia.WpfGraph.UI.ViewModels.EdgeData, Palmmedia.WpfGraph.UI, Version=1.0.0.0, Culture=neutral, PublicKeyToken=null]] [(null)] - Added node: Position: 32,18,0, Text: 11
2021-04-11 10:57:22,381 [MainThread] DEBUG Palmmedia.WpfGraph.UI.ViewModels.GraphViewModel`2[[Palmmedia.WpfGraph.UI.ViewModels.NodeData, Palmmedia.WpfGraph.UI, Version=1.0.0.0, Culture=neutral, PublicKeyToken=null],[Palmmedia.WpfGraph.UI.ViewModels.EdgeData, Palmmedia.WpfGraph.UI, Version=1.0.0.0, Culture=neutral, PublicKeyToken=null]] [(null)] - Selected new element: Position: 32,18,0, Text: 11
2021-04-11 10:57:23,540 [MainThread] DEBUG Palmmedia.WpfGraph.UI.ViewModels.GraphViewModel`2[[Palmmedia.WpfGraph.UI.ViewModels.NodeData, Palmmedia.WpfGraph.UI, Version=1.0.0.0, Culture=neutral, PublicKeyToken=null],[Palmmedia.WpfGraph.UI.ViewModels.EdgeData, Palmmedia.WpfGraph.UI, Version=1.0.0.0, Culture=neutral, PublicKeyToken=null]] [(null)] - Removed node: Position: 32,18,0, Text: 11
2021-04-11 10:57:23,541 [MainThread] DEBUG Palmmedia.WpfGraph.UI.ViewModels.GraphViewModel`2[[Palmmedia.WpfGraph.UI.ViewModels.NodeData, Palmmedia.WpfGraph.UI, Version=1.0.0.0, Culture=neutral, PublicKeyToken=null],[Palmmedia.WpfGraph.UI.ViewModels.EdgeData, Palmmedia.WpfGraph.UI, Version=1.0.0.0, Culture=neutral, PublicKeyToken=null]] [(null)] - Selected new element: 
2021-04-11 10:57:25,093 [MainThread] DEBUG Palmmedia.WpfGraph.UI.ViewModels.GraphViewModel`2[[Palmmedia.WpfGraph.UI.ViewModels.NodeData, Palmmedia.WpfGraph.UI, Version=1.0.0.0, Culture=neutral, PublicKeyToken=null],[Palmmedia.WpfGraph.UI.ViewModels.EdgeData, Palmmedia.WpfGraph.UI, Version=1.0.0.0, Culture=neutral, PublicKeyToken=null]] [(null)] - Selected new element: Weight: 1
2021-04-11 10:57:30,475 [MainThread] DEBUG Palmmedia.WpfGraph.UI.ViewModels.GraphViewModel`2[[Palmmedia.WpfGraph.UI.ViewModels.NodeData, Palmmedia.WpfGraph.UI, Version=1.0.0.0, Culture=neutral, PublicKeyToken=null],[Palmmedia.WpfGraph.UI.ViewModels.EdgeData, Palmmedia.WpfGraph.UI, Version=1.0.0.0, Culture=neutral, PublicKeyToken=null]] [(null)] - Selected new element: Weight: 1
2021-04-11 10:57:42,360 [MainThread] DEBUG Palmmedia.WpfGraph.UI.ViewModels.GraphViewModel`2[[Palmmedia.WpfGraph.UI.ViewModels.NodeData, Palmmedia.WpfGraph.UI, Version=1.0.0.0, Culture=neutral, PublicKeyToken=null],[Palmmedia.WpfGraph.UI.ViewModels.EdgeData, Palmmedia.WpfGraph.UI, Version=1.0.0.0, Culture=neutral, PublicKeyToken=null]] [(null)] - Selected new element: Weight: 1
2021-04-11 10:57:48,831 [MainThread] DEBUG Palmmedia.WpfGraph.UI.ViewModels.GraphViewModel`2[[Palmmedia.WpfGraph.UI.ViewModels.NodeData, Palmmedia.WpfGraph.UI, Version=1.0.0.0, Culture=neutral, PublicKeyToken=null],[Palmmedia.WpfGraph.UI.ViewModels.EdgeData, Palmmedia.WpfGraph.UI, Version=1.0.0.0, Culture=neutral, PublicKeyToken=null]] [(null)] - Selected new element: Position: -26,17,0, Text: Origen
2021-04-11 10:58:00,382 [MainThread] DEBUG Palmmedia.WpfGraph.UI.ViewModels.GraphViewModel`2[[Palmmedia.WpfGraph.UI.ViewModels.NodeData, Palmmedia.WpfGraph.UI, Version=1.0.0.0, Culture=neutral, PublicKeyToken=null],[Palmmedia.WpfGraph.UI.ViewModels.EdgeData, Palmmedia.WpfGraph.UI, Version=1.0.0.0, Culture=neutral, PublicKeyToken=null]] [(null)] - Selected new element: Position: 13,25,0, Text: 3
2021-04-11 10:58:50,980 [MainThread] DEBUG Palmmedia.WpfGraph.UI.ViewModels.GraphViewModel`2[[Palmmedia.WpfGraph.UI.ViewModels.NodeData, Palmmedia.WpfGraph.UI, Version=1.0.0.0, Culture=neutral, PublicKeyToken=null],[Palmmedia.WpfGraph.UI.ViewModels.EdgeData, Palmmedia.WpfGraph.UI, Version=1.0.0.0, Culture=neutral, PublicKeyToken=null]] [(null)] - Selected new element: Position: -26,17,0, Text: Origen
2021-04-11 10:59:22,592 [MainThread] DEBUG Palmmedia.WpfGraph.UI.ViewModels.GraphViewModel`2[[Palmmedia.WpfGraph.UI.ViewModels.NodeData, Palmmedia.WpfGraph.UI, Version=1.0.0.0, Culture=neutral, PublicKeyToken=null],[Palmmedia.WpfGraph.UI.ViewModels.EdgeData, Palmmedia.WpfGraph.UI, Version=1.0.0.0, Culture=neutral, PublicKeyToken=null]] [(null)] - Added node: Position: -5,50,0, Text: 12
2021-04-11 10:59:22,594 [MainThread] DEBUG Palmmedia.WpfGraph.UI.ViewModels.GraphViewModel`2[[Palmmedia.WpfGraph.UI.ViewModels.NodeData, Palmmedia.WpfGraph.UI, Version=1.0.0.0, Culture=neutral, PublicKeyToken=null],[Palmmedia.WpfGraph.UI.ViewModels.EdgeData, Palmmedia.WpfGraph.UI, Version=1.0.0.0, Culture=neutral, PublicKeyToken=null]] [(null)] - Selected new element: Position: -5,50,0, Text: 12
2021-04-11 10:59:23,162 [MainThread] DEBUG Palmmedia.WpfGraph.UI.ViewModels.GraphViewModel`2[[Palmmedia.WpfGraph.UI.ViewModels.NodeData, Palmmedia.WpfGraph.UI, Version=1.0.0.0, Culture=neutral, PublicKeyToken=null],[Palmmedia.WpfGraph.UI.ViewModels.EdgeData, Palmmedia.WpfGraph.UI, Version=1.0.0.0, Culture=neutral, PublicKeyToken=null]] [(null)] - Added node: Position: 22,50,0, Text: 13
2021-04-11 10:59:23,163 [MainThread] DEBUG Palmmedia.WpfGraph.UI.ViewModels.GraphViewModel`2[[Palmmedia.WpfGraph.UI.ViewModels.NodeData, Palmmedia.WpfGraph.UI, Version=1.0.0.0, Culture=neutral, PublicKeyToken=null],[Palmmedia.WpfGraph.UI.ViewModels.EdgeData, Palmmedia.WpfGraph.UI, Version=1.0.0.0, Culture=neutral, PublicKeyToken=null]] [(null)] - Selected new element: Position: 22,50,0, Text: 13
2021-04-11 10:59:23,751 [MainThread] DEBUG Palmmedia.WpfGraph.UI.ViewModels.GraphViewModel`2[[Palmmedia.WpfGraph.UI.ViewModels.NodeData, Palmmedia.WpfGraph.UI, Version=1.0.0.0, Culture=neutral, PublicKeyToken=null],[Palmmedia.WpfGraph.UI.ViewModels.EdgeData, Palmmedia.WpfGraph.UI, Version=1.0.0.0, Culture=neutral, PublicKeyToken=null]] [(null)] - Added node: Position: 45,32,0, Text: 14
2021-04-11 10:59:23,752 [MainThread] DEBUG Palmmedia.WpfGraph.UI.ViewModels.GraphViewModel`2[[Palmmedia.WpfGraph.UI.ViewModels.NodeData, Palmmedia.WpfGraph.UI, Version=1.0.0.0, Culture=neutral, PublicKeyToken=null],[Palmmedia.WpfGraph.UI.ViewModels.EdgeData, Palmmedia.WpfGraph.UI, Version=1.0.0.0, Culture=neutral, PublicKeyToken=null]] [(null)] - Selected new element: Position: 45,32,0, Text: 14
2021-04-11 10:59:24,610 [MainThread] DEBUG Palmmedia.WpfGraph.UI.ViewModels.GraphViewModel`2[[Palmmedia.WpfGraph.UI.ViewModels.NodeData, Palmmedia.WpfGraph.UI, Version=1.0.0.0, Culture=neutral, PublicKeyToken=null],[Palmmedia.WpfGraph.UI.ViewModels.EdgeData, Palmmedia.WpfGraph.UI, Version=1.0.0.0, Culture=neutral, PublicKeyToken=null]] [(null)] - Added node: Position: 14,9,0, Text: 15
2021-04-11 10:59:24,612 [MainThread] DEBUG Palmmedia.WpfGraph.UI.ViewModels.GraphViewModel`2[[Palmmedia.WpfGraph.UI.ViewModels.NodeData, Palmmedia.WpfGraph.UI, Version=1.0.0.0, Culture=neutral, PublicKeyToken=null],[Palmmedia.WpfGraph.UI.ViewModels.EdgeData, Palmmedia.WpfGraph.UI, Version=1.0.0.0, Culture=neutral, PublicKeyToken=null]] [(null)] - Selected new element: Position: 14,9,0, Text: 15
2021-04-11 10:59:25,094 [MainThread] DEBUG Palmmedia.WpfGraph.UI.ViewModels.GraphViewModel`2[[Palmmedia.WpfGraph.UI.ViewModels.NodeData, Palmmedia.WpfGraph.UI, Version=1.0.0.0, Culture=neutral, PublicKeyToken=null],[Palmmedia.WpfGraph.UI.ViewModels.EdgeData, Palmmedia.WpfGraph.UI, Version=1.0.0.0, Culture=neutral, PublicKeyToken=null]] [(null)] - Selected new element: Position: -26,17,0, Text: Origen
2021-04-11 10:59:25,625 [MainThread] DEBUG Palmmedia.WpfGraph.UI.ViewModels.GraphViewModel`2[[Palmmedia.WpfGraph.UI.ViewModels.NodeData, Palmmedia.WpfGraph.UI, Version=1.0.0.0, Culture=neutral, PublicKeyToken=null],[Palmmedia.WpfGraph.UI.ViewModels.EdgeData, Palmmedia.WpfGraph.UI, Version=1.0.0.0, Culture=neutral, PublicKeyToken=null]] [(null)] - Added node: Position: -26,29,0, Text: 16
2021-04-11 10:59:25,626 [MainThread] DEBUG Palmmedia.WpfGraph.UI.ViewModels.GraphViewModel`2[[Palmmedia.WpfGraph.UI.ViewModels.NodeData, Palmmedia.WpfGraph.UI, Version=1.0.0.0, Culture=neutral, PublicKeyToken=null],[Palmmedia.WpfGraph.UI.ViewModels.EdgeData, Palmmedia.WpfGraph.UI, Version=1.0.0.0, Culture=neutral, PublicKeyToken=null]] [(null)] - Selected new element: Position: -26,29,0, Text: 16
2021-04-11 10:59:26,176 [MainThread] DEBUG Palmmedia.WpfGraph.UI.ViewModels.GraphViewModel`2[[Palmmedia.WpfGraph.UI.ViewModels.NodeData, Palmmedia.WpfGraph.UI, Version=1.0.0.0, Culture=neutral, PublicKeyToken=null],[Palmmedia.WpfGraph.UI.ViewModels.EdgeData, Palmmedia.WpfGraph.UI, Version=1.0.0.0, Culture=neutral, PublicKeyToken=null]] [(null)] - Added node: Position: -59,54,0, Text: 17
2021-04-11 10:59:26,177 [MainThread] DEBUG Palmmedia.WpfGraph.UI.ViewModels.GraphViewModel`2[[Palmmedia.WpfGraph.UI.ViewModels.NodeData, Palmmedia.WpfGraph.UI, Version=1.0.0.0, Culture=neutral, PublicKeyToken=null],[Palmmedia.WpfGraph.UI.ViewModels.EdgeData, Palmmedia.WpfGraph.UI, Version=1.0.0.0, Culture=neutral, PublicKeyToken=null]] [(null)] - Selected new element: Position: -59,54,0, Text: 17
2021-04-11 10:59:31,187 [MainThread] DEBUG Palmmedia.WpfGraph.UI.ViewModels.GraphViewModel`2[[Palmmedia.WpfGraph.UI.ViewModels.NodeData, Palmmedia.WpfGraph.UI, Version=1.0.0.0, Culture=neutral, PublicKeyToken=null],[Palmmedia.WpfGraph.UI.ViewModels.EdgeData, Palmmedia.WpfGraph.UI, Version=1.0.0.0, Culture=neutral, PublicKeyToken=null]] [(null)] - Selected new element: 
2021-04-12 10:10:04,963 [MainThread] DEBUG Palmmedia.WpfGraph.UI.WpfGraph [(null)] - Initializing main window.
2021-04-12 10:10:07,160 [MainThread] DEBUG Palmmedia.WpfGraph.UI.ViewModels.GraphViewModel`2[[Palmmedia.WpfGraph.UI.ViewModels.NodeData, Palmmedia.WpfGraph.UI, Version=1.0.0.0, Culture=neutral, PublicKeyToken=null],[Palmmedia.WpfGraph.UI.ViewModels.EdgeData, Palmmedia.WpfGraph.UI, Version=1.0.0.0, Culture=neutral, PublicKeyToken=null]] [(null)] - Selected new element: 
2021-04-21 10:02:02,044 [MainThread] DEBUG Palmmedia.WpfGraph.UI.WpfGraph [(null)] - Initializing main window.
2021-04-21 10:02:04,115 [MainThread] DEBUG Palmmedia.WpfGraph.UI.ViewModels.GraphViewModel`2[[Palmmedia.WpfGraph.UI.ViewModels.NodeData, Palmmedia.WpfGraph.UI, Version=1.0.0.0, Culture=neutral, PublicKeyToken=null],[Palmmedia.WpfGraph.UI.ViewModels.EdgeData, Palmmedia.WpfGraph.UI, Version=1.0.0.0, Culture=neutral, PublicKeyToken=null]] [(null)] - Selected new element: 
2021-04-21 10:02:18,095 [MainThread] DEBUG Palmmedia.WpfGraph.UI.ViewModels.GraphViewModel`2[[Palmmedia.WpfGraph.UI.ViewModels.NodeData, Palmmedia.WpfGraph.UI, Version=1.0.0.0, Culture=neutral, PublicKeyToken=null],[Palmmedia.WpfGraph.UI.ViewModels.EdgeData, Palmmedia.WpfGraph.UI, Version=1.0.0.0, Culture=neutral, PublicKeyToken=null]] [(null)] - Added node: Position: -2,27,0, Text: 1
2021-04-21 10:02:18,126 [MainThread] DEBUG Palmmedia.WpfGraph.UI.ViewModels.GraphViewModel`2[[Palmmedia.WpfGraph.UI.ViewModels.NodeData, Palmmedia.WpfGraph.UI, Version=1.0.0.0, Culture=neutral, PublicKeyToken=null],[Palmmedia.WpfGraph.UI.ViewModels.EdgeData, Palmmedia.WpfGraph.UI, Version=1.0.0.0, Culture=neutral, PublicKeyToken=null]] [(null)] - Selected new element: Position: -2,27,0, Text: 1
2021-04-21 10:02:19,429 [MainThread] DEBUG Palmmedia.WpfGraph.UI.ViewModels.GraphViewModel`2[[Palmmedia.WpfGraph.UI.ViewModels.NodeData, Palmmedia.WpfGraph.UI, Version=1.0.0.0, Culture=neutral, PublicKeyToken=null],[Palmmedia.WpfGraph.UI.ViewModels.EdgeData, Palmmedia.WpfGraph.UI, Version=1.0.0.0, Culture=neutral, PublicKeyToken=null]] [(null)] - Added node: Position: -16,12,0, Text: 2
2021-04-21 10:02:19,430 [MainThread] DEBUG Palmmedia.WpfGraph.UI.ViewModels.GraphViewModel`2[[Palmmedia.WpfGraph.UI.ViewModels.NodeData, Palmmedia.WpfGraph.UI, Version=1.0.0.0, Culture=neutral, PublicKeyToken=null],[Palmmedia.WpfGraph.UI.ViewModels.EdgeData, Palmmedia.WpfGraph.UI, Version=1.0.0.0, Culture=neutral, PublicKeyToken=null]] [(null)] - Selected new element: Position: -16,12,0, Text: 2
2021-04-21 10:02:20,854 [MainThread] DEBUG Palmmedia.WpfGraph.UI.ViewModels.GraphViewModel`2[[Palmmedia.WpfGraph.UI.ViewModels.NodeData, Palmmedia.WpfGraph.UI, Version=1.0.0.0, Culture=neutral, PublicKeyToken=null],[Palmmedia.WpfGraph.UI.ViewModels.EdgeData, Palmmedia.WpfGraph.UI, Version=1.0.0.0, Culture=neutral, PublicKeyToken=null]] [(null)] - Added node: Position: -29,35,0, Text: 3
2021-04-21 10:02:20,855 [MainThread] DEBUG Palmmedia.WpfGraph.UI.ViewModels.GraphViewModel`2[[Palmmedia.WpfGraph.UI.ViewModels.NodeData, Palmmedia.WpfGraph.UI, Version=1.0.0.0, Culture=neutral, PublicKeyToken=null],[Palmmedia.WpfGraph.UI.ViewModels.EdgeData, Palmmedia.WpfGraph.UI, Version=1.0.0.0, Culture=neutral, PublicKeyToken=null]] [(null)] - Selected new element: Position: -29,35,0, Text: 3
2021-04-21 10:02:26,233 [MainThread] DEBUG Palmmedia.WpfGraph.UI.ViewModels.GraphViewModel`2[[Palmmedia.WpfGraph.UI.ViewModels.NodeData, Palmmedia.WpfGraph.UI, Version=1.0.0.0, Culture=neutral, PublicKeyToken=null],[Palmmedia.WpfGraph.UI.ViewModels.EdgeData, Palmmedia.WpfGraph.UI, Version=1.0.0.0, Culture=neutral, PublicKeyToken=null]] [(null)] - Selected new element: Position: -2,27,0, Text: 1
2021-04-21 10:02:26,970 [MainThread] DEBUG Palmmedia.WpfGraph.UI.ViewModels.GraphViewModel`2[[Palmmedia.WpfGraph.UI.ViewModels.NodeData, Palmmedia.WpfGraph.UI, Version=1.0.0.0, Culture=neutral, PublicKeyToken=null],[Palmmedia.WpfGraph.UI.ViewModels.EdgeData, Palmmedia.WpfGraph.UI, Version=1.0.0.0, Culture=neutral, PublicKeyToken=null]] [(null)] - Added edge: Palmmedia.WpfGraph.Core.Edge`2[Palmmedia.WpfGraph.UI.ViewModels.NodeData,Palmmedia.WpfGraph.UI.ViewModels.EdgeData]
2021-04-21 10:02:27,053 [MainThread] DEBUG Palmmedia.WpfGraph.UI.ViewModels.GraphViewModel`2[[Palmmedia.WpfGraph.UI.ViewModels.NodeData, Palmmedia.WpfGraph.UI, Version=1.0.0.0, Culture=neutral, PublicKeyToken=null],[Palmmedia.WpfGraph.UI.ViewModels.EdgeData, Palmmedia.WpfGraph.UI, Version=1.0.0.0, Culture=neutral, PublicKeyToken=null]] [(null)] - Selected new element: Weight: 1
2021-04-21 10:02:27,709 [MainThread] DEBUG Palmmedia.WpfGraph.UI.ViewModels.GraphViewModel`2[[Palmmedia.WpfGraph.UI.ViewModels.NodeData, Palmmedia.WpfGraph.UI, Version=1.0.0.0, Culture=neutral, PublicKeyToken=null],[Palmmedia.WpfGraph.UI.ViewModels.EdgeData, Palmmedia.WpfGraph.UI, Version=1.0.0.0, Culture=neutral, PublicKeyToken=null]] [(null)] - Selected new element: Position: -16,12,0, Text: 2
2021-04-21 10:02:28,791 [MainThread] DEBUG Palmmedia.WpfGraph.UI.ViewModels.GraphViewModel`2[[Palmmedia.WpfGraph.UI.ViewModels.NodeData, Palmmedia.WpfGraph.UI, Version=1.0.0.0, Culture=neutral, PublicKeyToken=null],[Palmmedia.WpfGraph.UI.ViewModels.EdgeData, Palmmedia.WpfGraph.UI, Version=1.0.0.0, Culture=neutral, PublicKeyToken=null]] [(null)] - Selected new element: Position: -29,35,0, Text: 3
2021-04-21 10:02:29,428 [MainThread] DEBUG Palmmedia.WpfGraph.UI.ViewModels.GraphViewModel`2[[Palmmedia.WpfGraph.UI.ViewModels.NodeData, Palmmedia.WpfGraph.UI, Version=1.0.0.0, Culture=neutral, PublicKeyToken=null],[Palmmedia.WpfGraph.UI.ViewModels.EdgeData, Palmmedia.WpfGraph.UI, Version=1.0.0.0, Culture=neutral, PublicKeyToken=null]] [(null)] - Added edge: Palmmedia.WpfGraph.Core.Edge`2[Palmmedia.WpfGraph.UI.ViewModels.NodeData,Palmmedia.WpfGraph.UI.ViewModels.EdgeData]
2021-04-21 10:02:29,433 [MainThread] DEBUG Palmmedia.WpfGraph.UI.ViewModels.GraphViewModel`2[[Palmmedia.WpfGraph.UI.ViewModels.NodeData, Palmmedia.WpfGraph.UI, Version=1.0.0.0, Culture=neutral, PublicKeyToken=null],[Palmmedia.WpfGraph.UI.ViewModels.EdgeData, Palmmedia.WpfGraph.UI, Version=1.0.0.0, Culture=neutral, PublicKeyToken=null]] [(null)] - Selected new element: Weight: 1
2021-04-21 10:02:35,405 [MainThread] DEBUG Palmmedia.WpfGraph.UI.ViewModels.GraphViewModel`2[[Palmmedia.WpfGraph.UI.ViewModels.NodeData, Palmmedia.WpfGraph.UI, Version=1.0.0.0, Culture=neutral, PublicKeyToken=null],[Palmmedia.WpfGraph.UI.ViewModels.EdgeData, Palmmedia.WpfGraph.UI, Version=1.0.0.0, Culture=neutral, PublicKeyToken=null]] [(null)] - Added node: Position: -37,37,0, Text: 4
2021-04-21 10:02:35,407 [MainThread] DEBUG Palmmedia.WpfGraph.UI.ViewModels.GraphViewModel`2[[Palmmedia.WpfGraph.UI.ViewModels.NodeData, Palmmedia.WpfGraph.UI, Version=1.0.0.0, Culture=neutral, PublicKeyToken=null],[Palmmedia.WpfGraph.UI.ViewModels.EdgeData, Palmmedia.WpfGraph.UI, Version=1.0.0.0, Culture=neutral, PublicKeyToken=null]] [(null)] - Selected new element: Position: -37,37,0, Text: 4
2021-04-21 10:02:39,070 [MainThread] DEBUG Palmmedia.WpfGraph.UI.ViewModels.GraphViewModel`2[[Palmmedia.WpfGraph.UI.ViewModels.NodeData, Palmmedia.WpfGraph.UI, Version=1.0.0.0, Culture=neutral, PublicKeyToken=null],[Palmmedia.WpfGraph.UI.ViewModels.EdgeData, Palmmedia.WpfGraph.UI, Version=1.0.0.0, Culture=neutral, PublicKeyToken=null]] [(null)] - Selected new element: Position: -37,37,0, Text: 4
2021-04-21 10:02:41,949 [MainThread] DEBUG Palmmedia.WpfGraph.UI.ViewModels.GraphViewModel`2[[Palmmedia.WpfGraph.UI.ViewModels.NodeData, Palmmedia.WpfGraph.UI, Version=1.0.0.0, Culture=neutral, PublicKeyToken=null],[Palmmedia.WpfGraph.UI.ViewModels.EdgeData, Palmmedia.WpfGraph.UI, Version=1.0.0.0, Culture=neutral, PublicKeyToken=null]] [(null)] - Selected new element: Position: -37,37,0, Text: 4
2021-04-21 10:02:44,006 [MainThread] DEBUG Palmmedia.WpfGraph.UI.ViewModels.GraphViewModel`2[[Palmmedia.WpfGraph.UI.ViewModels.NodeData, Palmmedia.WpfGraph.UI, Version=1.0.0.0, Culture=neutral, PublicKeyToken=null],[Palmmedia.WpfGraph.UI.ViewModels.EdgeData, Palmmedia.WpfGraph.UI, Version=1.0.0.0, Culture=neutral, PublicKeyToken=null]] [(null)] - Selected new element: Position: -37,37,0, Text: 4
2021-04-21 10:02:50,951 [MainThread] DEBUG Palmmedia.WpfGraph.UI.ViewModels.GraphViewModel`2[[Palmmedia.WpfGraph.UI.ViewModels.NodeData, Palmmedia.WpfGraph.UI, Version=1.0.0.0, Culture=neutral, PublicKeyToken=null],[Palmmedia.WpfGraph.UI.ViewModels.EdgeData, Palmmedia.WpfGraph.UI, Version=1.0.0.0, Culture=neutral, PublicKeyToken=null]] [(null)] - Selected new element: Position: -37,37,0, Text: 4
2021-04-21 10:02:51,896 [MainThread] DEBUG Palmmedia.WpfGraph.UI.ViewModels.GraphViewModel`2[[Palmmedia.WpfGraph.UI.ViewModels.NodeData, Palmmedia.WpfGraph.UI, Version=1.0.0.0, Culture=neutral, PublicKeyToken=null],[Palmmedia.WpfGraph.UI.ViewModels.EdgeData, Palmmedia.WpfGraph.UI, Version=1.0.0.0, Culture=neutral, PublicKeyToken=null]] [(null)] - Removed node: Position: -37,37,0, Text: 4
2021-04-21 10:02:51,908 [MainThread] DEBUG Palmmedia.WpfGraph.UI.ViewModels.GraphViewModel`2[[Palmmedia.WpfGraph.UI.ViewModels.NodeData, Palmmedia.WpfGraph.UI, Version=1.0.0.0, Culture=neutral, PublicKeyToken=null],[Palmmedia.WpfGraph.UI.ViewModels.EdgeData, Palmmedia.WpfGraph.UI, Version=1.0.0.0, Culture=neutral, PublicKeyToken=null]] [(null)] - Selected new element: 
2021-04-21 10:02:53,780 [MainThread] DEBUG Palmmedia.WpfGraph.UI.ViewModels.GraphViewModel`2[[Palmmedia.WpfGraph.UI.ViewModels.NodeData, Palmmedia.WpfGraph.UI, Version=1.0.0.0, Culture=neutral, PublicKeyToken=null],[Palmmedia.WpfGraph.UI.ViewModels.EdgeData, Palmmedia.WpfGraph.UI, Version=1.0.0.0, Culture=neutral, PublicKeyToken=null]] [(null)] - Added node: Position: -38,40,0, Text: 5
2021-04-21 10:02:53,781 [MainThread] DEBUG Palmmedia.WpfGraph.UI.ViewModels.GraphViewModel`2[[Palmmedia.WpfGraph.UI.ViewModels.NodeData, Palmmedia.WpfGraph.UI, Version=1.0.0.0, Culture=neutral, PublicKeyToken=null],[Palmmedia.WpfGraph.UI.ViewModels.EdgeData, Palmmedia.WpfGraph.UI, Version=1.0.0.0, Culture=neutral, PublicKeyToken=null]] [(null)] - Selected new element: Position: -38,40,0, Text: 5
2021-04-21 10:02:54,678 [MainThread] DEBUG Palmmedia.WpfGraph.UI.ViewModels.GraphViewModel`2[[Palmmedia.WpfGraph.UI.ViewModels.NodeData, Palmmedia.WpfGraph.UI, Version=1.0.0.0, Culture=neutral, PublicKeyToken=null],[Palmmedia.WpfGraph.UI.ViewModels.EdgeData, Palmmedia.WpfGraph.UI, Version=1.0.0.0, Culture=neutral, PublicKeyToken=null]] [(null)] - Removed node: Position: -38,40,0, Text: 5
2021-04-21 10:02:54,679 [MainThread] DEBUG Palmmedia.WpfGraph.UI.ViewModels.GraphViewModel`2[[Palmmedia.WpfGraph.UI.ViewModels.NodeData, Palmmedia.WpfGraph.UI, Version=1.0.0.0, Culture=neutral, PublicKeyToken=null],[Palmmedia.WpfGraph.UI.ViewModels.EdgeData, Palmmedia.WpfGraph.UI, Version=1.0.0.0, Culture=neutral, PublicKeyToken=null]] [(null)] - Selected new element: 
2021-04-21 10:02:55,829 [MainThread] DEBUG Palmmedia.WpfGraph.UI.ViewModels.GraphViewModel`2[[Palmmedia.WpfGraph.UI.ViewModels.NodeData, Palmmedia.WpfGraph.UI, Version=1.0.0.0, Culture=neutral, PublicKeyToken=null],[Palmmedia.WpfGraph.UI.ViewModels.EdgeData, Palmmedia.WpfGraph.UI, Version=1.0.0.0, Culture=neutral, PublicKeyToken=null]] [(null)] - Added node: Position: -39,40,0, Text: 6
2021-04-21 10:02:55,830 [MainThread] DEBUG Palmmedia.WpfGraph.UI.ViewModels.GraphViewModel`2[[Palmmedia.WpfGraph.UI.ViewModels.NodeData, Palmmedia.WpfGraph.UI, Version=1.0.0.0, Culture=neutral, PublicKeyToken=null],[Palmmedia.WpfGraph.UI.ViewModels.EdgeData, Palmmedia.WpfGraph.UI, Version=1.0.0.0, Culture=neutral, PublicKeyToken=null]] [(null)] - Selected new element: Position: -39,40,0, Text: 6
2021-04-21 10:02:56,919 [MainThread] DEBUG Palmmedia.WpfGraph.UI.ViewModels.GraphViewModel`2[[Palmmedia.WpfGraph.UI.ViewModels.NodeData, Palmmedia.WpfGraph.UI, Version=1.0.0.0, Culture=neutral, PublicKeyToken=null],[Palmmedia.WpfGraph.UI.ViewModels.EdgeData, Palmmedia.WpfGraph.UI, Version=1.0.0.0, Culture=neutral, PublicKeyToken=null]] [(null)] - Removed node: Position: -39,40,0, Text: 6
2021-04-21 10:02:56,920 [MainThread] DEBUG Palmmedia.WpfGraph.UI.ViewModels.GraphViewModel`2[[Palmmedia.WpfGraph.UI.ViewModels.NodeData, Palmmedia.WpfGraph.UI, Version=1.0.0.0, Culture=neutral, PublicKeyToken=null],[Palmmedia.WpfGraph.UI.ViewModels.EdgeData, Palmmedia.WpfGraph.UI, Version=1.0.0.0, Culture=neutral, PublicKeyToken=null]] [(null)] - Selected new element: 
2021-04-21 10:02:58,401 [MainThread] DEBUG Palmmedia.WpfGraph.UI.ViewModels.GraphViewModel`2[[Palmmedia.WpfGraph.UI.ViewModels.NodeData, Palmmedia.WpfGraph.UI, Version=1.0.0.0, Culture=neutral, PublicKeyToken=null],[Palmmedia.WpfGraph.UI.ViewModels.EdgeData, Palmmedia.WpfGraph.UI, Version=1.0.0.0, Culture=neutral, PublicKeyToken=null]] [(null)] - Added node: Position: -36,36,0, Text: 7
2021-04-21 10:02:58,403 [MainThread] DEBUG Palmmedia.WpfGraph.UI.ViewModels.GraphViewModel`2[[Palmmedia.WpfGraph.UI.ViewModels.NodeData, Palmmedia.WpfGraph.UI, Version=1.0.0.0, Culture=neutral, PublicKeyToken=null],[Palmmedia.WpfGraph.UI.ViewModels.EdgeData, Palmmedia.WpfGraph.UI, Version=1.0.0.0, Culture=neutral, PublicKeyToken=null]] [(null)] - Selected new element: Position: -36,36,0, Text: 7
2021-04-21 10:02:59,404 [MainThread] DEBUG Palmmedia.WpfGraph.UI.ViewModels.GraphViewModel`2[[Palmmedia.WpfGraph.UI.ViewModels.NodeData, Palmmedia.WpfGraph.UI, Version=1.0.0.0, Culture=neutral, PublicKeyToken=null],[Palmmedia.WpfGraph.UI.ViewModels.EdgeData, Palmmedia.WpfGraph.UI, Version=1.0.0.0, Culture=neutral, PublicKeyToken=null]] [(null)] - Removed node: Position: -36,36,0, Text: 7
2021-04-21 10:02:59,406 [MainThread] DEBUG Palmmedia.WpfGraph.UI.ViewModels.GraphViewModel`2[[Palmmedia.WpfGraph.UI.ViewModels.NodeData, Palmmedia.WpfGraph.UI, Version=1.0.0.0, Culture=neutral, PublicKeyToken=null],[Palmmedia.WpfGraph.UI.ViewModels.EdgeData, Palmmedia.WpfGraph.UI, Version=1.0.0.0, Culture=neutral, PublicKeyToken=null]] [(null)] - Selected new element: 
2021-04-21 10:03:00,727 [MainThread] DEBUG Palmmedia.WpfGraph.UI.ViewModels.GraphViewModel`2[[Palmmedia.WpfGraph.UI.ViewModels.NodeData, Palmmedia.WpfGraph.UI, Version=1.0.0.0, Culture=neutral, PublicKeyToken=null],[Palmmedia.WpfGraph.UI.ViewModels.EdgeData, Palmmedia.WpfGraph.UI, Version=1.0.0.0, Culture=neutral, PublicKeyToken=null]] [(null)] - Selected new element: Position: -29,35,0, Text: 3
2021-04-21 10:03:01,439 [MainThread] DEBUG Palmmedia.WpfGraph.UI.ViewModels.GraphViewModel`2[[Palmmedia.WpfGraph.UI.ViewModels.NodeData, Palmmedia.WpfGraph.UI, Version=1.0.0.0, Culture=neutral, PublicKeyToken=null],[Palmmedia.WpfGraph.UI.ViewModels.EdgeData, Palmmedia.WpfGraph.UI, Version=1.0.0.0, Culture=neutral, PublicKeyToken=null]] [(null)] - Removed edge: Weight: 1
2021-04-21 10:03:01,439 [MainThread] DEBUG Palmmedia.WpfGraph.UI.ViewModels.GraphViewModel`2[[Palmmedia.WpfGraph.UI.ViewModels.NodeData, Palmmedia.WpfGraph.UI, Version=1.0.0.0, Culture=neutral, PublicKeyToken=null],[Palmmedia.WpfGraph.UI.ViewModels.EdgeData, Palmmedia.WpfGraph.UI, Version=1.0.0.0, Culture=neutral, PublicKeyToken=null]] [(null)] - Removed node: Position: -29,35,0, Text: 3
2021-04-21 10:03:01,440 [MainThread] DEBUG Palmmedia.WpfGraph.UI.ViewModels.GraphViewModel`2[[Palmmedia.WpfGraph.UI.ViewModels.NodeData, Palmmedia.WpfGraph.UI, Version=1.0.0.0, Culture=neutral, PublicKeyToken=null],[Palmmedia.WpfGraph.UI.ViewModels.EdgeData, Palmmedia.WpfGraph.UI, Version=1.0.0.0, Culture=neutral, PublicKeyToken=null]] [(null)] - Selected new element: 
2021-04-21 10:03:02,339 [MainThread] DEBUG Palmmedia.WpfGraph.UI.ViewModels.GraphViewModel`2[[Palmmedia.WpfGraph.UI.ViewModels.NodeData, Palmmedia.WpfGraph.UI, Version=1.0.0.0, Culture=neutral, PublicKeyToken=null],[Palmmedia.WpfGraph.UI.ViewModels.EdgeData, Palmmedia.WpfGraph.UI, Version=1.0.0.0, Culture=neutral, PublicKeyToken=null]] [(null)] - Added node: Position: -22,35,0, Text: 8
2021-04-21 10:03:02,341 [MainThread] DEBUG Palmmedia.WpfGraph.UI.ViewModels.GraphViewModel`2[[Palmmedia.WpfGraph.UI.ViewModels.NodeData, Palmmedia.WpfGraph.UI, Version=1.0.0.0, Culture=neutral, PublicKeyToken=null],[Palmmedia.WpfGraph.UI.ViewModels.EdgeData, Palmmedia.WpfGraph.UI, Version=1.0.0.0, Culture=neutral, PublicKeyToken=null]] [(null)] - Selected new element: Position: -22,35,0, Text: 8
2021-04-21 10:03:03,154 [MainThread] DEBUG Palmmedia.WpfGraph.UI.ViewModels.GraphViewModel`2[[Palmmedia.WpfGraph.UI.ViewModels.NodeData, Palmmedia.WpfGraph.UI, Version=1.0.0.0, Culture=neutral, PublicKeyToken=null],[Palmmedia.WpfGraph.UI.ViewModels.EdgeData, Palmmedia.WpfGraph.UI, Version=1.0.0.0, Culture=neutral, PublicKeyToken=null]] [(null)] - Added node: Position: -64,-8,0, Text: 9
2021-04-21 10:03:03,157 [MainThread] DEBUG Palmmedia.WpfGraph.UI.ViewModels.GraphViewModel`2[[Palmmedia.WpfGraph.UI.ViewModels.NodeData, Palmmedia.WpfGraph.UI, Version=1.0.0.0, Culture=neutral, PublicKeyToken=null],[Palmmedia.WpfGraph.UI.ViewModels.EdgeData, Palmmedia.WpfGraph.UI, Version=1.0.0.0, Culture=neutral, PublicKeyToken=null]] [(null)] - Selected new element: Position: -64,-8,0, Text: 9
2021-04-21 10:03:04,122 [MainThread] DEBUG Palmmedia.WpfGraph.UI.ViewModels.GraphViewModel`2[[Palmmedia.WpfGraph.UI.ViewModels.NodeData, Palmmedia.WpfGraph.UI, Version=1.0.0.0, Culture=neutral, PublicKeyToken=null],[Palmmedia.WpfGraph.UI.ViewModels.EdgeData, Palmmedia.WpfGraph.UI, Version=1.0.0.0, Culture=neutral, PublicKeyToken=null]] [(null)] - Selected new element: Position: -64,-8,0, Text: 9
2021-04-21 10:03:05,033 [MainThread] DEBUG Palmmedia.WpfGraph.UI.ViewModels.GraphViewModel`2[[Palmmedia.WpfGraph.UI.ViewModels.NodeData, Palmmedia.WpfGraph.UI, Version=1.0.0.0, Culture=neutral, PublicKeyToken=null],[Palmmedia.WpfGraph.UI.ViewModels.EdgeData, Palmmedia.WpfGraph.UI, Version=1.0.0.0, Culture=neutral, PublicKeyToken=null]] [(null)] - Added edge: Palmmedia.WpfGraph.Core.Edge`2[Palmmedia.WpfGraph.UI.ViewModels.NodeData,Palmmedia.WpfGraph.UI.ViewModels.EdgeData]
2021-04-21 10:03:05,039 [MainThread] DEBUG Palmmedia.WpfGraph.UI.ViewModels.GraphViewModel`2[[Palmmedia.WpfGraph.UI.ViewModels.NodeData, Palmmedia.WpfGraph.UI, Version=1.0.0.0, Culture=neutral, PublicKeyToken=null],[Palmmedia.WpfGraph.UI.ViewModels.EdgeData, Palmmedia.WpfGraph.UI, Version=1.0.0.0, Culture=neutral, PublicKeyToken=null]] [(null)] - Selected new element: Weight: 1
2021-04-21 10:03:05,578 [MainThread] DEBUG Palmmedia.WpfGraph.UI.ViewModels.GraphViewModel`2[[Palmmedia.WpfGraph.UI.ViewModels.NodeData, Palmmedia.WpfGraph.UI, Version=1.0.0.0, Culture=neutral, PublicKeyToken=null],[Palmmedia.WpfGraph.UI.ViewModels.EdgeData, Palmmedia.WpfGraph.UI, Version=1.0.0.0, Culture=neutral, PublicKeyToken=null]] [(null)] - Selected new element: Position: -22,35,0, Text: 8
2021-04-21 10:03:06,152 [MainThread] DEBUG Palmmedia.WpfGraph.UI.ViewModels.GraphViewModel`2[[Palmmedia.WpfGraph.UI.ViewModels.NodeData, Palmmedia.WpfGraph.UI, Version=1.0.0.0, Culture=neutral, PublicKeyToken=null],[Palmmedia.WpfGraph.UI.ViewModels.EdgeData, Palmmedia.WpfGraph.UI, Version=1.0.0.0, Culture=neutral, PublicKeyToken=null]] [(null)] - Added edge: Palmmedia.WpfGraph.Core.Edge`2[Palmmedia.WpfGraph.UI.ViewModels.NodeData,Palmmedia.WpfGraph.UI.ViewModels.EdgeData]
2021-04-21 10:03:06,153 [MainThread] DEBUG Palmmedia.WpfGraph.UI.ViewModels.GraphViewModel`2[[Palmmedia.WpfGraph.UI.ViewModels.NodeData, Palmmedia.WpfGraph.UI, Version=1.0.0.0, Culture=neutral, PublicKeyToken=null],[Palmmedia.WpfGraph.UI.ViewModels.EdgeData, Palmmedia.WpfGraph.UI, Version=1.0.0.0, Culture=neutral, PublicKeyToken=null]] [(null)] - Selected new element: Weight: 1
2021-04-21 10:03:17,381 [MainThread] DEBUG Palmmedia.WpfGraph.UI.ViewModels.GraphViewModel`2[[Palmmedia.WpfGraph.UI.ViewModels.NodeData, Palmmedia.WpfGraph.UI, Version=1.0.0.0, Culture=neutral, PublicKeyToken=null],[Palmmedia.WpfGraph.UI.ViewModels.EdgeData, Palmmedia.WpfGraph.UI, Version=1.0.0.0, Culture=neutral, PublicKeyToken=null]] [(null)] - Selected new element: Position: -16,12,0, Text: 2
2021-04-21 10:03:19,122 [MainThread] DEBUG Palmmedia.WpfGraph.UI.ViewModels.GraphViewModel`2[[Palmmedia.WpfGraph.UI.ViewModels.NodeData, Palmmedia.WpfGraph.UI, Version=1.0.0.0, Culture=neutral, PublicKeyToken=null],[Palmmedia.WpfGraph.UI.ViewModels.EdgeData, Palmmedia.WpfGraph.UI, Version=1.0.0.0, Culture=neutral, PublicKeyToken=null]] [(null)] - Selected new element: Position: -22,35,0, Text: 8
2021-04-21 10:04:29,017 [MainThread] DEBUG Palmmedia.WpfGraph.UI.WpfGraph [(null)] - Initializing main window.
2021-04-21 10:04:30,938 [MainThread] DEBUG Palmmedia.WpfGraph.UI.ViewModels.GraphViewModel`2[[Palmmedia.WpfGraph.UI.ViewModels.NodeData, Palmmedia.WpfGraph.UI, Version=1.0.0.0, Culture=neutral, PublicKeyToken=null],[Palmmedia.WpfGraph.UI.ViewModels.EdgeData, Palmmedia.WpfGraph.UI, Version=1.0.0.0, Culture=neutral, PublicKeyToken=null]] [(null)] - Selected new element: 
2021-04-21 10:04:34,467 [MainThread] DEBUG Palmmedia.WpfGraph.UI.ViewModels.GraphViewModel`2[[Palmmedia.WpfGraph.UI.ViewModels.NodeData, Palmmedia.WpfGraph.UI, Version=1.0.0.0, Culture=neutral, PublicKeyToken=null],[Palmmedia.WpfGraph.UI.ViewModels.EdgeData, Palmmedia.WpfGraph.UI, Version=1.0.0.0, Culture=neutral, PublicKeyToken=null]] [(null)] - Added node: Position: -15,33,0, Text: 1
2021-04-21 10:04:34,497 [MainThread] DEBUG Palmmedia.WpfGraph.UI.ViewModels.GraphViewModel`2[[Palmmedia.WpfGraph.UI.ViewModels.NodeData, Palmmedia.WpfGraph.UI, Version=1.0.0.0, Culture=neutral, PublicKeyToken=null],[Palmmedia.WpfGraph.UI.ViewModels.EdgeData, Palmmedia.WpfGraph.UI, Version=1.0.0.0, Culture=neutral, PublicKeyToken=null]] [(null)] - Selected new element: Position: -15,33,0, Text: 1
2021-04-21 10:04:35,184 [MainThread] DEBUG Palmmedia.WpfGraph.UI.ViewModels.GraphViewModel`2[[Palmmedia.WpfGraph.UI.ViewModels.NodeData, Palmmedia.WpfGraph.UI, Version=1.0.0.0, Culture=neutral, PublicKeyToken=null],[Palmmedia.WpfGraph.UI.ViewModels.EdgeData, Palmmedia.WpfGraph.UI, Version=1.0.0.0, Culture=neutral, PublicKeyToken=null]] [(null)] - Added node: Position: -15,33,0, Text: 2
2021-04-21 10:04:35,184 [MainThread] DEBUG Palmmedia.WpfGraph.UI.ViewModels.GraphViewModel`2[[Palmmedia.WpfGraph.UI.ViewModels.NodeData, Palmmedia.WpfGraph.UI, Version=1.0.0.0, Culture=neutral, PublicKeyToken=null],[Palmmedia.WpfGraph.UI.ViewModels.EdgeData, Palmmedia.WpfGraph.UI, Version=1.0.0.0, Culture=neutral, PublicKeyToken=null]] [(null)] - Selected new element: Position: -15,33,0, Text: 2
2021-04-21 10:04:35,326 [MainThread] DEBUG Palmmedia.WpfGraph.UI.ViewModels.GraphViewModel`2[[Palmmedia.WpfGraph.UI.ViewModels.NodeData, Palmmedia.WpfGraph.UI, Version=1.0.0.0, Culture=neutral, PublicKeyToken=null],[Palmmedia.WpfGraph.UI.ViewModels.EdgeData, Palmmedia.WpfGraph.UI, Version=1.0.0.0, Culture=neutral, PublicKeyToken=null]] [(null)] - Added node: Position: -14,22,0, Text: 3
2021-04-21 10:04:35,327 [MainThread] DEBUG Palmmedia.WpfGraph.UI.ViewModels.GraphViewModel`2[[Palmmedia.WpfGraph.UI.ViewModels.NodeData, Palmmedia.WpfGraph.UI, Version=1.0.0.0, Culture=neutral, PublicKeyToken=null],[Palmmedia.WpfGraph.UI.ViewModels.EdgeData, Palmmedia.WpfGraph.UI, Version=1.0.0.0, Culture=neutral, PublicKeyToken=null]] [(null)] - Selected new element: Position: -14,22,0, Text: 3
2021-04-21 10:04:36,045 [MainThread] DEBUG Palmmedia.WpfGraph.UI.ViewModels.GraphViewModel`2[[Palmmedia.WpfGraph.UI.ViewModels.NodeData, Palmmedia.WpfGraph.UI, Version=1.0.0.0, Culture=neutral, PublicKeyToken=null],[Palmmedia.WpfGraph.UI.ViewModels.EdgeData, Palmmedia.WpfGraph.UI, Version=1.0.0.0, Culture=neutral, PublicKeyToken=null]] [(null)] - Selected new element: Position: -14,22,0, Text: 3
2021-04-21 10:04:36,880 [MainThread] DEBUG Palmmedia.WpfGraph.UI.ViewModels.GraphViewModel`2[[Palmmedia.WpfGraph.UI.ViewModels.NodeData, Palmmedia.WpfGraph.UI, Version=1.0.0.0, Culture=neutral, PublicKeyToken=null],[Palmmedia.WpfGraph.UI.ViewModels.EdgeData, Palmmedia.WpfGraph.UI, Version=1.0.0.0, Culture=neutral, PublicKeyToken=null]] [(null)] - Added edge: Palmmedia.WpfGraph.Core.Edge`2[Palmmedia.WpfGraph.UI.ViewModels.NodeData,Palmmedia.WpfGraph.UI.ViewModels.EdgeData]
2021-04-21 10:04:36,889 [MainThread] DEBUG Palmmedia.WpfGraph.UI.ViewModels.GraphViewModel`2[[Palmmedia.WpfGraph.UI.ViewModels.NodeData, Palmmedia.WpfGraph.UI, Version=1.0.0.0, Culture=neutral, PublicKeyToken=null],[Palmmedia.WpfGraph.UI.ViewModels.EdgeData, Palmmedia.WpfGraph.UI, Version=1.0.0.0, Culture=neutral, PublicKeyToken=null]] [(null)] - Selected new element: Weight: 1
2021-04-21 10:04:38,011 [MainThread] DEBUG Palmmedia.WpfGraph.UI.ViewModels.GraphViewModel`2[[Palmmedia.WpfGraph.UI.ViewModels.NodeData, Palmmedia.WpfGraph.UI, Version=1.0.0.0, Culture=neutral, PublicKeyToken=null],[Palmmedia.WpfGraph.UI.ViewModels.EdgeData, Palmmedia.WpfGraph.UI, Version=1.0.0.0, Culture=neutral, PublicKeyToken=null]] [(null)] - Added node: Position: -2,14,0, Text: 4
2021-04-21 10:04:38,012 [MainThread] DEBUG Palmmedia.WpfGraph.UI.ViewModels.GraphViewModel`2[[Palmmedia.WpfGraph.UI.ViewModels.NodeData, Palmmedia.WpfGraph.UI, Version=1.0.0.0, Culture=neutral, PublicKeyToken=null],[Palmmedia.WpfGraph.UI.ViewModels.EdgeData, Palmmedia.WpfGraph.UI, Version=1.0.0.0, Culture=neutral, PublicKeyToken=null]] [(null)] - Selected new element: Position: -2,14,0, Text: 4
2021-04-21 10:04:39,135 [MainThread] DEBUG Palmmedia.WpfGraph.UI.ViewModels.GraphViewModel`2[[Palmmedia.WpfGraph.UI.ViewModels.NodeData, Palmmedia.WpfGraph.UI, Version=1.0.0.0, Culture=neutral, PublicKeyToken=null],[Palmmedia.WpfGraph.UI.ViewModels.EdgeData, Palmmedia.WpfGraph.UI, Version=1.0.0.0, Culture=neutral, PublicKeyToken=null]] [(null)] - Selected new element: Position: -14,22,0, Text: 3
2021-04-21 10:04:47,175 [MainThread] DEBUG Palmmedia.WpfGraph.UI.ViewModels.GraphViewModel`2[[Palmmedia.WpfGraph.UI.ViewModels.NodeData, Palmmedia.WpfGraph.UI, Version=1.0.0.0, Culture=neutral, PublicKeyToken=null],[Palmmedia.WpfGraph.UI.ViewModels.EdgeData, Palmmedia.WpfGraph.UI, Version=1.0.0.0, Culture=neutral, PublicKeyToken=null]] [(null)] - Added node: Position: 13,8,0, Text: 5
2021-04-21 10:04:47,177 [MainThread] DEBUG Palmmedia.WpfGraph.UI.ViewModels.GraphViewModel`2[[Palmmedia.WpfGraph.UI.ViewModels.NodeData, Palmmedia.WpfGraph.UI, Version=1.0.0.0, Culture=neutral, PublicKeyToken=null],[Palmmedia.WpfGraph.UI.ViewModels.EdgeData, Palmmedia.WpfGraph.UI, Version=1.0.0.0, Culture=neutral, PublicKeyToken=null]] [(null)] - Selected new element: Position: 13,8,0, Text: 5
2021-04-21 10:04:49,051 [MainThread] DEBUG Palmmedia.WpfGraph.UI.ViewModels.GraphViewModel`2[[Palmmedia.WpfGraph.UI.ViewModels.NodeData, Palmmedia.WpfGraph.UI, Version=1.0.0.0, Culture=neutral, PublicKeyToken=null],[Palmmedia.WpfGraph.UI.ViewModels.EdgeData, Palmmedia.WpfGraph.UI, Version=1.0.0.0, Culture=neutral, PublicKeyToken=null]] [(null)] - Selected new element: Position: -2,14,0, Text: 4
2021-04-21 10:04:49,701 [MainThread] DEBUG Palmmedia.WpfGraph.UI.ViewModels.GraphViewModel`2[[Palmmedia.WpfGraph.UI.ViewModels.NodeData, Palmmedia.WpfGraph.UI, Version=1.0.0.0, Culture=neutral, PublicKeyToken=null],[Palmmedia.WpfGraph.UI.ViewModels.EdgeData, Palmmedia.WpfGraph.UI, Version=1.0.0.0, Culture=neutral, PublicKeyToken=null]] [(null)] - Added edge: Palmmedia.WpfGraph.Core.Edge`2[Palmmedia.WpfGraph.UI.ViewModels.NodeData,Palmmedia.WpfGraph.UI.ViewModels.EdgeData]
2021-04-21 10:04:49,779 [MainThread] DEBUG Palmmedia.WpfGraph.UI.ViewModels.GraphViewModel`2[[Palmmedia.WpfGraph.UI.ViewModels.NodeData, Palmmedia.WpfGraph.UI, Version=1.0.0.0, Culture=neutral, PublicKeyToken=null],[Palmmedia.WpfGraph.UI.ViewModels.EdgeData, Palmmedia.WpfGraph.UI, Version=1.0.0.0, Culture=neutral, PublicKeyToken=null]] [(null)] - Selected new element: Weight: 1
2021-04-21 10:07:00,303 [MainThread] DEBUG Palmmedia.WpfGraph.UI.WpfGraph [(null)] - Initializing main window.
2021-04-21 10:07:02,192 [MainThread] DEBUG Palmmedia.WpfGraph.UI.ViewModels.GraphViewModel`2[[Palmmedia.WpfGraph.UI.ViewModels.NodeData, Palmmedia.WpfGraph.UI, Version=1.0.0.0, Culture=neutral, PublicKeyToken=null],[Palmmedia.WpfGraph.UI.ViewModels.EdgeData, Palmmedia.WpfGraph.UI, Version=1.0.0.0, Culture=neutral, PublicKeyToken=null]] [(null)] - Selected new element: 
2021-04-21 10:10:35,537 [MainThread] DEBUG Palmmedia.WpfGraph.UI.WpfGraph [(null)] - Initializing main window.
2021-04-21 10:10:37,461 [MainThread] DEBUG Palmmedia.WpfGraph.UI.ViewModels.GraphViewModel`2[[Palmmedia.WpfGraph.UI.ViewModels.NodeData, Palmmedia.WpfGraph.UI, Version=1.0.0.0, Culture=neutral, PublicKeyToken=null],[Palmmedia.WpfGraph.UI.ViewModels.EdgeData, Palmmedia.WpfGraph.UI, Version=1.0.0.0, Culture=neutral, PublicKeyToken=null]] [(null)] - Selected new element: 
2021-04-21 10:10:43,041 [MainThread] DEBUG Palmmedia.WpfGraph.UI.ViewModels.GraphViewModel`2[[Palmmedia.WpfGraph.UI.ViewModels.NodeData, Palmmedia.WpfGraph.UI, Version=1.0.0.0, Culture=neutral, PublicKeyToken=null],[Palmmedia.WpfGraph.UI.ViewModels.EdgeData, Palmmedia.WpfGraph.UI, Version=1.0.0.0, Culture=neutral, PublicKeyToken=null]] [(null)] - Added node: Position: 4,25,0, Text: 1
2021-04-21 10:10:43,083 [MainThread] DEBUG Palmmedia.WpfGraph.UI.ViewModels.GraphViewModel`2[[Palmmedia.WpfGraph.UI.ViewModels.NodeData, Palmmedia.WpfGraph.UI, Version=1.0.0.0, Culture=neutral, PublicKeyToken=null],[Palmmedia.WpfGraph.UI.ViewModels.EdgeData, Palmmedia.WpfGraph.UI, Version=1.0.0.0, Culture=neutral, PublicKeyToken=null]] [(null)] - Selected new element: Position: 4,25,0, Text: 1
2021-04-21 10:10:44,026 [MainThread] DEBUG Palmmedia.WpfGraph.UI.ViewModels.GraphViewModel`2[[Palmmedia.WpfGraph.UI.ViewModels.NodeData, Palmmedia.WpfGraph.UI, Version=1.0.0.0, Culture=neutral, PublicKeyToken=null],[Palmmedia.WpfGraph.UI.ViewModels.EdgeData, Palmmedia.WpfGraph.UI, Version=1.0.0.0, Culture=neutral, PublicKeyToken=null]] [(null)] - Added node: Position: -17,12,0, Text: 2
2021-04-21 10:10:44,027 [MainThread] DEBUG Palmmedia.WpfGraph.UI.ViewModels.GraphViewModel`2[[Palmmedia.WpfGraph.UI.ViewModels.NodeData, Palmmedia.WpfGraph.UI, Version=1.0.0.0, Culture=neutral, PublicKeyToken=null],[Palmmedia.WpfGraph.UI.ViewModels.EdgeData, Palmmedia.WpfGraph.UI, Version=1.0.0.0, Culture=neutral, PublicKeyToken=null]] [(null)] - Selected new element: Position: -17,12,0, Text: 2
2021-04-21 10:10:44,847 [MainThread] DEBUG Palmmedia.WpfGraph.UI.ViewModels.GraphViewModel`2[[Palmmedia.WpfGraph.UI.ViewModels.NodeData, Palmmedia.WpfGraph.UI, Version=1.0.0.0, Culture=neutral, PublicKeyToken=null],[Palmmedia.WpfGraph.UI.ViewModels.EdgeData, Palmmedia.WpfGraph.UI, Version=1.0.0.0, Culture=neutral, PublicKeyToken=null]] [(null)] - Added node: Position: 11,3,0, Text: 3
2021-04-21 10:10:44,848 [MainThread] DEBUG Palmmedia.WpfGraph.UI.ViewModels.GraphViewModel`2[[Palmmedia.WpfGraph.UI.ViewModels.NodeData, Palmmedia.WpfGraph.UI, Version=1.0.0.0, Culture=neutral, PublicKeyToken=null],[Palmmedia.WpfGraph.UI.ViewModels.EdgeData, Palmmedia.WpfGraph.UI, Version=1.0.0.0, Culture=neutral, PublicKeyToken=null]] [(null)] - Selected new element: Position: 11,3,0, Text: 3
2021-04-21 10:16:32,223 [MainThread] DEBUG Palmmedia.WpfGraph.UI.WpfGraph [(null)] - Initializing main window.
2021-04-21 10:16:34,366 [MainThread] DEBUG Palmmedia.WpfGraph.UI.ViewModels.GraphViewModel`2[[Palmmedia.WpfGraph.UI.ViewModels.NodeData, Palmmedia.WpfGraph.UI, Version=1.0.0.0, Culture=neutral, PublicKeyToken=null],[Palmmedia.WpfGraph.UI.ViewModels.EdgeData, Palmmedia.WpfGraph.UI, Version=1.0.0.0, Culture=neutral, PublicKeyToken=null]] [(null)] - Selected new element: 
2021-04-21 10:16:43,424 [MainThread] DEBUG Palmmedia.WpfGraph.UI.ViewModels.GraphViewModel`2[[Palmmedia.WpfGraph.UI.ViewModels.NodeData, Palmmedia.WpfGraph.UI, Version=1.0.0.0, Culture=neutral, PublicKeyToken=null],[Palmmedia.WpfGraph.UI.ViewModels.EdgeData, Palmmedia.WpfGraph.UI, Version=1.0.0.0, Culture=neutral, PublicKeyToken=null]] [(null)] - Added node: Position: 25,25,0, Text: 1
2021-04-21 10:16:43,454 [MainThread] DEBUG Palmmedia.WpfGraph.UI.ViewModels.GraphViewModel`2[[Palmmedia.WpfGraph.UI.ViewModels.NodeData, Palmmedia.WpfGraph.UI, Version=1.0.0.0, Culture=neutral, PublicKeyToken=null],[Palmmedia.WpfGraph.UI.ViewModels.EdgeData, Palmmedia.WpfGraph.UI, Version=1.0.0.0, Culture=neutral, PublicKeyToken=null]] [(null)] - Added node: Position: 25,-25,0, Text: 2
2021-04-21 10:16:43,455 [MainThread] DEBUG Palmmedia.WpfGraph.UI.ViewModels.GraphViewModel`2[[Palmmedia.WpfGraph.UI.ViewModels.NodeData, Palmmedia.WpfGraph.UI, Version=1.0.0.0, Culture=neutral, PublicKeyToken=null],[Palmmedia.WpfGraph.UI.ViewModels.EdgeData, Palmmedia.WpfGraph.UI, Version=1.0.0.0, Culture=neutral, PublicKeyToken=null]] [(null)] - Added node: Position: -25,25,0, Text: 3
2021-04-21 10:16:43,457 [MainThread] DEBUG Palmmedia.WpfGraph.UI.ViewModels.GraphViewModel`2[[Palmmedia.WpfGraph.UI.ViewModels.NodeData, Palmmedia.WpfGraph.UI, Version=1.0.0.0, Culture=neutral, PublicKeyToken=null],[Palmmedia.WpfGraph.UI.ViewModels.EdgeData, Palmmedia.WpfGraph.UI, Version=1.0.0.0, Culture=neutral, PublicKeyToken=null]] [(null)] - Added node: Position: -25,-25,0, Text: 4
2021-04-21 10:16:43,462 [MainThread] DEBUG Palmmedia.WpfGraph.UI.ViewModels.GraphViewModel`2[[Palmmedia.WpfGraph.UI.ViewModels.NodeData, Palmmedia.WpfGraph.UI, Version=1.0.0.0, Culture=neutral, PublicKeyToken=null],[Palmmedia.WpfGraph.UI.ViewModels.EdgeData, Palmmedia.WpfGraph.UI, Version=1.0.0.0, Culture=neutral, PublicKeyToken=null]] [(null)] - Added edge: Palmmedia.WpfGraph.Core.Edge`2[Palmmedia.WpfGraph.UI.ViewModels.NodeData,Palmmedia.WpfGraph.UI.ViewModels.EdgeData]
2021-04-21 10:16:43,533 [MainThread] DEBUG Palmmedia.WpfGraph.UI.ViewModels.GraphViewModel`2[[Palmmedia.WpfGraph.UI.ViewModels.NodeData, Palmmedia.WpfGraph.UI, Version=1.0.0.0, Culture=neutral, PublicKeyToken=null],[Palmmedia.WpfGraph.UI.ViewModels.EdgeData, Palmmedia.WpfGraph.UI, Version=1.0.0.0, Culture=neutral, PublicKeyToken=null]] [(null)] - Added edge: Palmmedia.WpfGraph.Core.Edge`2[Palmmedia.WpfGraph.UI.ViewModels.NodeData,Palmmedia.WpfGraph.UI.ViewModels.EdgeData]
2021-04-21 10:16:43,536 [MainThread] DEBUG Palmmedia.WpfGraph.UI.ViewModels.NodeData [(null)] - Moved node from: 25,25,0 to: 35,-35,0
2021-04-21 10:16:43,544 [MainThread] DEBUG Palmmedia.WpfGraph.UI.ViewModels.NodeData [(null)] - Moved node from: -25,-25,0 to: 35,35,0
2021-04-21 10:16:43,545 [MainThread] DEBUG Palmmedia.WpfGraph.UI.ViewModels.NodeData [(null)] - Moved node from: 25,-25,0 to: -35,35,0
2021-04-21 10:16:43,545 [MainThread] DEBUG Palmmedia.WpfGraph.UI.ViewModels.NodeData [(null)] - Moved node from: -25,25,0 to: 35,-35,0
2021-04-21 10:43:52,523 [MainThread] DEBUG Palmmedia.WpfGraph.UI.WpfGraph [(null)] - Initializing main window.
2021-04-21 10:43:54,732 [MainThread] DEBUG Palmmedia.WpfGraph.UI.ViewModels.GraphViewModel`2[[Palmmedia.WpfGraph.UI.ViewModels.NodeData, Palmmedia.WpfGraph.UI, Version=1.0.0.0, Culture=neutral, PublicKeyToken=null],[Palmmedia.WpfGraph.UI.ViewModels.EdgeData, Palmmedia.WpfGraph.UI, Version=1.0.0.0, Culture=neutral, PublicKeyToken=null]] [(null)] - Selected new element: 
2021-04-21 10:51:36,420 [MainThread] DEBUG Palmmedia.WpfGraph.UI.WpfGraph [(null)] - Initializing main window.
2021-04-21 10:51:38,632 [MainThread] DEBUG Palmmedia.WpfGraph.UI.ViewModels.GraphViewModel`2[[Palmmedia.WpfGraph.UI.ViewModels.NodeData, Palmmedia.WpfGraph.UI, Version=1.0.0.0, Culture=neutral, PublicKeyToken=null],[Palmmedia.WpfGraph.UI.ViewModels.EdgeData, Palmmedia.WpfGraph.UI, Version=1.0.0.0, Culture=neutral, PublicKeyToken=null]] [(null)] - Selected new element: 
